EESchema Schematic File Version 4
EELAYER 30 0
EELAYER END
$Descr A4 11693 8268
encoding utf-8
Sheet 1 1
Title ""
Date ""
Rev ""
Comp ""
Comment1 ""
Comment2 ""
Comment3 ""
Comment4 ""
$EndDescr
$Comp
L Device:C C8
U 1 1 5E7D6007
P 4050 1850
F 0 "C8" V 4100 1900 50  0000 L CNN
F 1 "u10" V 4100 1650 50  0000 L CNN
F 2 "Capacitor_SMD:C_0402_1005Metric" H 4088 1700 50  0001 C CNN
F 3 "~" H 4050 1850 50  0001 C CNN
F 4 "generic" V 4050 1850 50  0001 C CNN "Manufacturer"
F 5 "CC0402_u10_10%_50V_X7R" V 4050 1850 50  0001 C CNN "MPN"
	1    4050 1850
	0    -1   -1   0   
$EndComp
$Comp
L power_HTE:GND #PWR07
U 1 1 5E7D6BFA
P 3150 1850
F 0 "#PWR07" H 3150 1600 50  0001 C CNN
F 1 "GND" H 3150 1725 50  0001 C CNN
F 2 "" H 3150 1850 50  0001 C CNN
F 3 "" H 3150 1850 50  0001 C CNN
	1    3150 1850
	0    1    1    0   
$EndComp
$Comp
L power_HTE:GND #PWR013
U 1 1 5E7D70B4
P 4250 1850
F 0 "#PWR013" H 4250 1600 50  0001 C CNN
F 1 "GND" H 4250 1725 50  0001 C CNN
F 2 "" H 4250 1850 50  0001 C CNN
F 3 "" H 4250 1850 50  0001 C CNN
	1    4250 1850
	0    -1   -1   0   
$EndComp
$Comp
L Device:C C6
U 1 1 5E7D8413
P 2450 3350
F 0 "C6" H 2565 3396 50  0000 L CNN
F 1 "10n" H 2565 3305 50  0000 L CNN
F 2 "Capacitor_SMD:C_0402_1005Metric" H 2488 3200 50  0001 C CNN
F 3 "~" H 2450 3350 50  0001 C CNN
F 4 "generic" H 2450 3350 50  0001 C CNN "Manufacturer"
F 5 "CC0402_10n_10%_50V_X7R" H 2450 3350 50  0001 C CNN "MPN"
	1    2450 3350
	1    0    0    -1  
$EndComp
$Comp
L power_HTE:GND #PWR03
U 1 1 5E7D8BF0
P 2450 3600
F 0 "#PWR03" H 2450 3350 50  0001 C CNN
F 1 "GND" H 2450 3475 50  0001 C CNN
F 2 "" H 2450 3600 50  0001 C CNN
F 3 "" H 2450 3600 50  0001 C CNN
	1    2450 3600
	1    0    0    -1  
$EndComp
$Comp
L power_HTE:GND #PWR09
U 1 1 5E7DBA9E
P 3500 3600
F 0 "#PWR09" H 3500 3350 50  0001 C CNN
F 1 "GND" H 3500 3475 50  0001 C CNN
F 2 "" H 3500 3600 50  0001 C CNN
F 3 "" H 3500 3600 50  0001 C CNN
	1    3500 3600
	1    0    0    -1  
$EndComp
$Comp
L power_HTE:GND #PWR011
U 1 1 5E7D8F7A
P 4200 3600
F 0 "#PWR011" H 4200 3350 50  0001 C CNN
F 1 "GND" H 4200 3475 50  0001 C CNN
F 2 "" H 4200 3600 50  0001 C CNN
F 3 "" H 4200 3600 50  0001 C CNN
	1    4200 3600
	1    0    0    -1  
$EndComp
$Comp
L power_HTE:GND #PWR05
U 1 1 5E7DD5EF
P 2800 3600
F 0 "#PWR05" H 2800 3350 50  0001 C CNN
F 1 "GND" H 2800 3475 50  0001 C CNN
F 2 "" H 2800 3600 50  0001 C CNN
F 3 "" H 2800 3600 50  0001 C CNN
	1    2800 3600
	1    0    0    -1  
$EndComp
$Comp
L Device:C C7
U 1 1 5E7DD69F
P 2800 3450
F 0 "C7" H 2900 3400 50  0000 L CNN
F 1 "u10" H 2900 3300 50  0000 L CNN
F 2 "Capacitor_SMD:C_0402_1005Metric" H 2838 3300 50  0001 C CNN
F 3 "~" H 2800 3450 50  0001 C CNN
F 4 "generic" H 2800 3450 50  0001 C CNN "Manufacturer"
F 5 "CC0402_u10_10%_50V_X7R" H 2800 3450 50  0001 C CNN "MPN"
	1    2800 3450
	1    0    0    -1  
$EndComp
Wire Wire Line
	4200 2300 4250 2300
$Comp
L Device:R R3
U 1 1 5E8075DC
P 2800 1600
F 0 "R3" H 2850 1650 50  0000 L CNN
F 1 "10k" H 2850 1550 50  0000 L CNN
F 2 "Resistor_SMD:R_0402_1005Metric" V 2730 1600 50  0001 C CNN
F 3 "~" H 2800 1600 50  0001 C CNN
F 4 "generic" H 2800 1600 50  0001 C CNN "Manufacturer"
F 5 "R0402_10K_1%" H 2800 1600 50  0001 C CNN "MPN"
	1    2800 1600
	1    0    0    -1  
$EndComp
$Comp
L Device:R R4
U 1 1 5E80A777
P 2700 1600
F 0 "R4" H 2500 1650 50  0000 L CNN
F 1 "10k" H 2500 1550 50  0000 L CNN
F 2 "Resistor_SMD:R_0402_1005Metric" V 2630 1600 50  0001 C CNN
F 3 "~" H 2700 1600 50  0001 C CNN
F 4 "generic" H 2700 1600 50  0001 C CNN "Manufacturer"
F 5 "R0402_10K_1%" H 2700 1600 50  0001 C CNN "MPN"
	1    2700 1600
	1    0    0    -1  
$EndComp
$Comp
L Connector_HTE:SAMTEC_FTSH-105-01-F-DV-K_SWD-VCOM-JTAG J1
U 1 1 5E918FEC
P 3800 4775
F 0 "J1" H 3807 5300 50  0000 C CNN
F 1 "SAMTEC_FTSH-105-01-F-DV-K_SWD-VCOM-JTAG" H 3850 5325 50  0001 C TNN
F 2 "Connector_PinHeader_1.27mm:PinHeader_2x05_P1.27mm_Vertical_SMD" H 3850 5425 50  0001 C CNN
F 3 "/hte/library/DS_SPICE/connectors/PLD/ftsh-1xx-xx-xxx-dv-xxx-xxx-mkt.pdf" H 3850 5425 50  0001 C CNN
F 4 "https://www.digikey.com/product-detail/en/samtec-inc/FTSH-105-01-F-DV-K/SAM8796-ND/2649974" H 3800 4775 50  0001 C CNN "DK_Detail_Page"
F 5 "SAM8796-ND" H 3800 4775 50  0001 C CNN "Digi-Key_PN"
F 6 "FTSH-105-01-F-DV-K" H 3800 4775 50  0001 C CNN "MPN"
F 7 "Samtec Inc." H 3800 4775 50  0001 C CNN "Manufacturer"
	1    3800 4775
	1    0    0    -1  
$EndComp
$Comp
L power_HTE:GND #PWR02
U 1 1 5E926E8C
P 4250 4825
F 0 "#PWR02" H 4250 4575 50  0001 C CNN
F 1 "GND" H 4250 4700 50  0001 C CNN
F 2 "" H 4250 4825 50  0001 C CNN
F 3 "" H 4250 4825 50  0001 C CNN
	1    4250 4825
	0    -1   -1   0   
$EndComp
Wire Wire Line
	4200 4825 4250 4825
Wire Wire Line
	4200 4425 4250 4425
Text Label 4650 4525 2    50   ~ 0
SWDIO
Text Label 4650 4725 2    50   ~ 0
SWCLK
$Comp
L power_HTE:2V5 #PWR06
U 1 1 5E7C3637
P 2750 1400
F 0 "#PWR06" H 2750 1250 50  0001 C CNN
F 1 "2V5" H 2765 1573 50  0000 C CNN
F 2 "" H 2650 1150 50  0001 C CNN
F 3 "" H 2750 1250 50  0001 C CNN
	1    2750 1400
	1    0    0    -1  
$EndComp
$Comp
L power_HTE:2V5 #PWR01
U 1 1 5E7EC6A2
P 4250 4425
F 0 "#PWR01" H 4250 4275 50  0001 C CNN
F 1 "2V5" H 4265 4598 50  0000 C CNN
F 2 "" H 4150 4175 50  0001 C CNN
F 3 "" H 4250 4275 50  0001 C CNN
	1    4250 4425
	1    0    0    -1  
$EndComp
Connection ~ 3500 1850
Wire Wire Line
	3500 1850 3500 1900
Wire Wire Line
	3150 1850 3200 1850
Wire Wire Line
	4200 1850 4250 1850
$Comp
L power_HTE:2V5 #PWR08
U 1 1 5E857AD3
P 3500 1800
F 0 "#PWR08" H 3500 1650 50  0001 C CNN
F 1 "2V5" H 3515 1973 50  0000 C CNN
F 2 "" H 3400 1550 50  0001 C CNN
F 3 "" H 3500 1650 50  0001 C CNN
	1    3500 1800
	1    0    0    -1  
$EndComp
Wire Wire Line
	3500 1800 3500 1850
$Comp
L power_HTE:2V5 #PWR010
U 1 1 5E859043
P 3900 1600
F 0 "#PWR010" H 3900 1450 50  0001 C CNN
F 1 "2V5" H 3915 1773 50  0000 C CNN
F 2 "" H 3800 1350 50  0001 C CNN
F 3 "" H 3900 1450 50  0001 C CNN
	1    3900 1600
	1    0    0    -1  
$EndComp
Connection ~ 3900 1850
Wire Wire Line
	3900 1850 3900 1900
Wire Wire Line
	2800 1750 2800 2300
Text Label 2550 2300 0    50   ~ 0
SCL
Text Label 2550 2400 0    50   ~ 0
SDA
$Comp
L power_HTE:2V5 #PWR014
U 1 1 5EB2FDB0
P 4250 2300
F 0 "#PWR014" H 4250 2150 50  0001 C CNN
F 1 "2V5" H 4265 2473 50  0000 C CNN
F 2 "" H 4150 2050 50  0001 C CNN
F 3 "" H 4250 2150 50  0001 C CNN
	1    4250 2300
	1    0    0    -1  
$EndComp
Wire Wire Line
	2800 1450 2800 1400
Wire Wire Line
	2700 1750 2700 2400
Connection ~ 2700 2400
Wire Wire Line
	2700 2400 2550 2400
Wire Wire Line
	2700 1450 2700 1400
Wire Wire Line
	2700 1400 2750 1400
$Comp
L Device:C C3
U 1 1 5E7FD500
P 8100 1850
F 0 "C3" V 8050 1700 50  0000 L CNN
F 1 "10u" V 8050 1900 50  0000 L CNN
F 2 "Capacitor_SMD:C_0402_1005Metric" H 8138 1700 50  0001 C CNN
F 3 "~" H 8100 1850 50  0001 C CNN
F 4 "generic" V 8100 1850 50  0001 C CNN "Manufacturer"
F 5 "CC0402_10u_20%_10V_X5R" V 8100 1850 50  0001 C CNN "MPN"
	1    8100 1850
	0    1    1    0   
$EndComp
$Comp
L power_HTE:GND #PWR025
U 1 1 5EF4FBDA
P 8300 1850
F 0 "#PWR025" H 8300 1600 50  0001 C CNN
F 1 "GND" H 8300 1725 50  0001 C CNN
F 2 "" H 8300 1850 50  0001 C CNN
F 3 "" H 8300 1850 50  0001 C CNN
	1    8300 1850
	0    -1   -1   0   
$EndComp
$Comp
L power_HTE:2V5 #PWR023
U 1 1 5EF54C2D
P 7950 1600
F 0 "#PWR023" H 7950 1450 50  0001 C CNN
F 1 "2V5" H 7965 1773 50  0000 C CNN
F 2 "" H 7850 1350 50  0001 C CNN
F 3 "" H 7950 1450 50  0001 C CNN
	1    7950 1600
	1    0    0    -1  
$EndComp
$Comp
L power_HTE:GND #PWR024
U 1 1 5EF640F0
P 7950 3700
F 0 "#PWR024" H 7950 3450 50  0001 C CNN
F 1 "GND" H 7950 3575 50  0001 C CNN
F 2 "" H 7950 3700 50  0001 C CNN
F 3 "" H 7950 3700 50  0001 C CNN
	1    7950 3700
	1    0    0    -1  
$EndComp
Text Label 6750 3200 0    50   ~ 0
SWDIO
Text Label 6750 3300 0    50   ~ 0
SWCLK
Text Label 8900 3150 2    50   ~ 0
SCL
Text Label 8900 3050 2    50   ~ 0
SDA
Wire Wire Line
	8700 3050 8900 3050
Text Label 4650 5325 2    50   ~ 0
NRST
Wire Wire Line
	4200 5325 4650 5325
Wire Wire Line
	4200 4525 4650 4525
Wire Wire Line
	4200 4725 4650 4725
Text Label 4650 4925 2    50   ~ 0
SWO
Wire Wire Line
	4200 4925 4650 4925
$Comp
L DisplayLED_HTE:SML-LX0603SRW-TR D2
U 1 1 5F1D36E7
P 5775 2900
F 0 "D2" H 5775 2775 50  0000 C CNN
F 1 "SML-LX0603SRW-TR" H 5800 3050 50  0000 C CNN
F 2 "LED_SMD:LED_0603_1608Metric" H 5775 2900 50  0001 C CNN
F 3 "/hte/library/DS_SPICE/LED/0603/red/SML-LX0603SRW-TR.pdf" H 5775 2900 50  0001 C CNN
F 4 "Lumex" H 5775 2900 50  0001 C CNN "Manufacturer"
F 5 "SML-LX0603SRW-TR" H 5775 2900 50  0001 C CNN "MPN"
F 6 "https://www.digikey.com/product-detail/en/lumex-opto-components-inc/SML-LX0603SRW-TR/67-1551-1-ND/304364" H 5775 2900 50  0001 C CNN "DK_Detail_Page"
F 7 "67-1551-1-ND" H 5775 2900 50  0001 C CNN "Digi-Key_PN"
	1    5775 2900
	1    0    0    1   
$EndComp
$Comp
L DisplayLED_HTE:LG_L29K-G2J1-24 D1
U 1 1 5F1D4510
P 10000 2550
F 0 "D1" H 9975 2725 50  0000 R CNN
F 1 "LG L29K-G2J1-24" H 10300 2650 50  0000 R CNN
F 2 "LED_SMD:LED_0603_1608Metric" H 10000 2550 50  0001 C CNN
F 3 "/hte/library/DS_SPICE/LED/0603/green/LG_L29K.pdf" H 10000 2550 50  0001 C CNN
F 4 "OSRAM" V 10000 2550 50  0001 C CNN "Manufacturer"
F 5 "LG L29K-G2J1-24" V 10000 2550 50  0001 C CNN "MPN"
F 6 "https://www.digikey.com/product-detail/en/osram-opto-semiconductors-inc/LG-L29K-G2J1-24-Z/475-2709-1-ND/1938876" H 10000 2550 50  0001 C CNN "DK_Detail_Page"
F 7 "475-2709-1-ND" H 10000 2550 50  0001 C CNN "Digi-Key_PN"
	1    10000 2550
	-1   0    0    -1  
$EndComp
$Comp
L Device:R R1
U 1 1 5F1E7373
P 9550 2550
F 0 "R1" V 9450 2550 50  0000 C CNN
F 1 "82R" V 9650 2550 50  0000 C CNN
F 2 "Resistor_SMD:R_0402_1005Metric" V 9480 2550 50  0001 C CNN
F 3 "~" H 9550 2550 50  0001 C CNN
F 4 "generic" V 9550 2550 50  0001 C CNN "Manufacturer"
F 5 "R0402_51R_1%" V 9550 2550 50  0001 C CNN "MPN"
	1    9550 2550
	0    -1   1    0   
$EndComp
$Comp
L Device:R R2
U 1 1 5F1E7DB3
P 6275 2900
F 0 "R2" V 6375 2875 50  0000 C CNN
F 1 "82R" V 6175 2925 50  0000 C CNN
F 2 "Resistor_SMD:R_0402_1005Metric" V 6205 2900 50  0001 C CNN
F 3 "~" H 6275 2900 50  0001 C CNN
F 4 "generic" V 6275 2900 50  0001 C CNN "Manufacturer"
F 5 "R0402_82R_1%" V 6275 2900 50  0001 C CNN "MPN"
	1    6275 2900
	0    1    -1   0   
$EndComp
$Comp
L power_HTE:GND #PWR021
U 1 1 5F2370B3
P 5600 2900
F 0 "#PWR021" H 5600 2650 50  0001 C CNN
F 1 "GND" H 5600 2775 50  0001 C CNN
F 2 "" H 5600 2900 50  0001 C CNN
F 3 "" H 5600 2900 50  0001 C CNN
	1    5600 2900
	0    1    -1   0   
$EndComp
$Comp
L power_HTE:GND #PWR018
U 1 1 5F2870C0
P 5950 2600
F 0 "#PWR018" H 5950 2350 50  0001 C CNN
F 1 "GND" H 5950 2475 50  0001 C CNN
F 2 "" H 5950 2600 50  0001 C CNN
F 3 "" H 5950 2600 50  0001 C CNN
	1    5950 2600
	1    0    0    -1  
$EndComp
NoConn ~ 11750 500 
Wire Wire Line
	2450 3500 2450 3600
$Comp
L IC_MCU_HTE:STM32G071GBU6 U3
U 1 1 5EF28494
P 7950 2700
F 0 "U3" H 8500 3450 50  0000 C CNN
F 1 "STM32G071GBU6" H 7500 3450 50  0000 C CNN
F 2 "Package_QFP_HTE:UFQFPN-28_4x4mm_P0.5_3.9x3.9mm" H 7950 4000 50  0001 C CNN
F 3 "/hte/library/DS_SPICE/ic/MCU/ST/STM32G0/STM32G071GB/stm32g071gb.pdf" H 7950 4000 50  0001 C CNN
F 4 "https://www.digikey.com/product-detail/en/stmicroelectronics/STM32G071GBU6/497-18343-ND/9749148" H 7950 2700 50  0001 C CNN "DK_Detail_Page"
F 5 "497-18343-ND" H 7950 2700 50  0001 C CNN "Digi-Key_PN"
F 6 "STM32G071GBU6" H 7950 2700 50  0001 C CNN "MPN"
F 7 "ST" H 7950 2700 50  0001 C CNN "Manufacturer"
	1    7950 2700
	1    0    0    -1  
$EndComp
Wire Wire Line
	3400 3500 3500 3500
Wire Wire Line
	3500 3600 3500 3500
Connection ~ 3500 3500
Connection ~ 4200 3200
Wire Wire Line
	4200 3200 4200 3600
Connection ~ 2800 2300
Wire Wire Line
	4200 2800 4200 2900
Wire Wire Line
	4200 2900 4200 3000
Wire Wire Line
	4200 3000 4200 3100
Wire Wire Line
	4200 3100 4200 3200
Connection ~ 4200 2900
Connection ~ 4200 3000
Connection ~ 4200 3100
Wire Wire Line
	3500 3500 3600 3500
Wire Wire Line
	2450 3200 2800 3200
Wire Wire Line
	2800 2400 2700 2400
Wire Wire Line
	2550 2300 2800 2300
$Comp
L power_HTE:GND #PWR04
U 1 1 5E7E35A8
P 2700 3000
F 0 "#PWR04" H 2700 2750 50  0001 C CNN
F 1 "GND" H 2700 2875 50  0001 C CNN
F 2 "" H 2700 3000 50  0001 C CNN
F 3 "" H 2700 3000 50  0001 C CNN
	1    2700 3000
	1    0    0    -1  
$EndComp
$Comp
L IC_Sensor_HTE:LSM9DS1 U1
U 1 1 5E7C4AE9
P 3500 2600
F 0 "U1" H 3000 3350 50  0000 C CNN
F 1 "LSM9DS1" H 3100 3250 50  0000 C CNN
F 2 "Package_LGA:LGA-24L_3x3.5mm_P0.43mm" H 5000 3350 50  0001 C CNN
F 3 "/hte/library/DS_SPICE/ic/sensor/axel_gyro/LSM9DS1/LSM9DS1(DM00103319).pdf" H 3500 2700 50  0001 C CNN
F 4 "https://www.digikey.com/product-detail/en/stmicroelectronics/LSM9DS1TR/497-14946-1-ND/4988079" H 3500 2600 50  0001 C CNN "DK_Detail_Page"
F 5 "497-14946-1-ND" H 3500 2600 50  0001 C CNN "Digi-Key_PN"
F 6 "LSM9DS1TR" H 3500 2600 50  0001 C CNN "MPN"
F 7 "ST" H 3500 2600 50  0001 C CNN "Manufacturer"
	1    3500 2600
	1    0    0    -1  
$EndComp
Wire Wire Line
	2700 3000 2800 3000
Wire Wire Line
	7950 3600 7950 3700
Text Label 6750 3100 0    50   ~ 0
SWO
Wire Wire Line
	6750 3100 7200 3100
Text Label 6975 3000 0    50   ~ 0
INT1
Text Label 2550 2800 0    50   ~ 0
INT1
Wire Wire Line
	2550 2800 2800 2800
Text Label 6750 3400 0    50   ~ 0
INTM
Text Label 4425 2600 2    50   ~ 0
INTM
Wire Wire Line
	4200 2600 4425 2600
Wire Wire Line
	4200 2400 4250 2400
Wire Wire Line
	4250 2400 4250 2300
Connection ~ 4250 2300
$Comp
L power_HTE:2V5 #PWR0102
U 1 1 5F2AB5F1
P 2750 2600
F 0 "#PWR0102" H 2750 2450 50  0001 C CNN
F 1 "2V5" V 2750 2800 50  0000 C CNN
F 2 "" H 2650 2350 50  0001 C CNN
F 3 "" H 2750 2450 50  0001 C CNN
	1    2750 2600
	0    -1   -1   0   
$EndComp
Wire Wire Line
	2750 2600 2800 2600
Wire Wire Line
	2800 2600 2800 2700
Connection ~ 2800 2600
Connection ~ 2750 1400
Wire Wire Line
	2750 1400 2800 1400
Wire Wire Line
	4650 5125 4200 5125
Wire Wire Line
	4200 5225 4650 5225
Wire Wire Line
	6750 3200 7200 3200
Wire Wire Line
	6750 3300 7200 3300
Text Label 8900 3300 2    50   ~ 0
NRST
Wire Wire Line
	8700 3300 8900 3300
$Comp
L Device:C C14
U 1 1 5F34D4CF
P 8100 1650
F 0 "C14" V 8250 1500 50  0000 L CNN
F 1 "u10" V 8150 1450 50  0000 L CNN
F 2 "Capacitor_SMD:C_0402_1005Metric" H 8138 1500 50  0001 C CNN
F 3 "~" H 8100 1650 50  0001 C CNN
F 4 "generic" V 8100 1650 50  0001 C CNN "Manufacturer"
F 5 "CC0402_u10_10%_50V_X7R" V 8100 1650 50  0001 C CNN "MPN"
	1    8100 1650
	0    -1   -1   0   
$EndComp
Connection ~ 7950 1850
Wire Wire Line
	7950 1850 7950 1900
Wire Wire Line
	7950 1600 7950 1650
Connection ~ 7950 1650
Wire Wire Line
	7950 1650 7950 1850
Wire Wire Line
	8250 1650 8300 1650
Wire Wire Line
	8300 1650 8300 1850
Wire Wire Line
	8250 1850 8300 1850
Connection ~ 8300 1850
$Comp
L Device:C C11
U 1 1 5F37483B
P 3350 1850
F 0 "C11" V 3475 1950 50  0000 L CNN
F 1 "u10" V 3400 1950 50  0000 L CNN
F 2 "Capacitor_SMD:C_0402_1005Metric" H 3388 1700 50  0001 C CNN
F 3 "~" H 3350 1850 50  0001 C CNN
F 4 "generic" V 3350 1850 50  0001 C CNN "Manufacturer"
F 5 "CC0402_u10_10%_50V_X7R" V 3350 1850 50  0001 C CNN "MPN"
	1    3350 1850
	0    -1   -1   0   
$EndComp
$Comp
L power_HTE:2V5 #PWR0104
U 1 1 5F3765DC
P 3600 1550
F 0 "#PWR0104" H 3600 1400 50  0001 C CNN
F 1 "2V5" H 3615 1723 50  0000 C CNN
F 2 "" H 3500 1300 50  0001 C CNN
F 3 "" H 3600 1400 50  0001 C CNN
	1    3600 1550
	1    0    0    -1  
$EndComp
Wire Wire Line
	3600 1550 3600 1900
$Comp
L Device:C C12
U 1 1 5F3934AE
P 4050 1150
F 0 "C12" V 4100 1225 50  0000 L CNN
F 1 "10u" V 4100 950 50  0000 L CNN
F 2 "Capacitor_SMD:C_0402_1005Metric" H 4088 1000 50  0001 C CNN
F 3 "~" H 4050 1150 50  0001 C CNN
F 4 "generic" V 4050 1150 50  0001 C CNN "Manufacturer"
F 5 "CC0402_10u_20%_10V_X5R" V 4050 1150 50  0001 C CNN "MPN"
	1    4050 1150
	0    -1   -1   0   
$EndComp
$Comp
L power_HTE:2V5 #PWR0106
U 1 1 5F3949BA
P 3800 1150
F 0 "#PWR0106" H 3800 1000 50  0001 C CNN
F 1 "2V5" V 3800 1325 50  0000 C CNN
F 2 "" H 3700 900 50  0001 C CNN
F 3 "" H 3800 1000 50  0001 C CNN
	1    3800 1150
	0    -1   -1   0   
$EndComp
Wire Wire Line
	3800 1150 3900 1150
Connection ~ 3800 1150
$Comp
L power_HTE:GND #PWR0108
U 1 1 5F3A6831
P 4250 1150
F 0 "#PWR0108" H 4250 900 50  0001 C CNN
F 1 "GND" H 4250 1025 50  0001 C CNN
F 2 "" H 4250 1150 50  0001 C CNN
F 3 "" H 4250 1150 50  0001 C CNN
	1    4250 1150
	0    -1   -1   0   
$EndComp
Wire Wire Line
	4200 1150 4250 1150
Wire Wire Line
	8700 3150 8900 3150
Text Label 6925 2500 0    50   ~ 0
BUT
Wire Wire Line
	8700 2650 8950 2650
Wire Wire Line
	9700 2550 9850 2550
Wire Wire Line
	6125 2900 5925 2900
Wire Wire Line
	5625 2900 5600 2900
Text Label 6775 2100 0    50   ~ 0
USART4_TX
Text Label 6775 2200 0    50   ~ 0
USART4_RX
Text Label 4650 5125 2    50   ~ 0
USART4_RX
Text Label 4650 5225 2    50   ~ 0
USART4_TX
Wire Wire Line
	6775 2100 7200 2100
Wire Wire Line
	6775 2200 7200 2200
Text Label 2550 2900 0    50   ~ 0
INT2
Text Label 4425 2500 2    50   ~ 0
RDYM
Wire Wire Line
	2550 2900 2800 2900
Wire Wire Line
	4200 2500 4425 2500
Text Label 8900 2300 2    50   ~ 0
INT2
Text Label 8950 2650 2    50   ~ 0
RDYM
Wire Wire Line
	6975 3000 7200 3000
Wire Wire Line
	6750 3400 7200 3400
NoConn ~ 4200 5025
NoConn ~ 4200 4625
Wire Wire Line
	8700 2300 8900 2300
Wire Wire Line
	7200 2300 6600 2300
Text Label 6775 2300 0    50   ~ 0
SENS_TX
Text Label 6775 2400 0    50   ~ 0
SENS_RX
Wire Wire Line
	6400 2500 7200 2500
Wire Wire Line
	5850 1700 6600 1700
Wire Wire Line
	6600 1700 6600 2300
Wire Wire Line
	6400 2400 6400 2150
Wire Wire Line
	6400 2150 5850 2150
Wire Wire Line
	6400 2400 7200 2400
$Comp
L power_HTE:GND #PWR0109
U 1 1 5FBF51AD
P 5900 2300
F 0 "#PWR0109" H 5900 2050 50  0001 C CNN
F 1 "GND" H 5900 2175 50  0001 C CNN
F 2 "" H 5900 2300 50  0001 C CNN
F 3 "" H 5900 2300 50  0001 C CNN
	1    5900 2300
	1    0    0    -1  
$EndComp
$Comp
L power_HTE:GND #PWR0110
U 1 1 5FC05D12
P 5900 1850
F 0 "#PWR0110" H 5900 1600 50  0001 C CNN
F 1 "GND" H 5900 1725 50  0001 C CNN
F 2 "" H 5900 1850 50  0001 C CNN
F 3 "" H 5900 1850 50  0001 C CNN
	1    5900 1850
	1    0    0    -1  
$EndComp
Wire Wire Line
	5850 1800 5900 1800
Wire Wire Line
	5900 1800 5900 1850
Wire Wire Line
	5900 2300 5900 2250
Wire Wire Line
	5900 2250 5850 2250
$Comp
L power_HTE:2V5 #PWR0111
U 1 1 5FC10BE8
P 5900 1600
F 0 "#PWR0111" H 5900 1450 50  0001 C CNN
F 1 "2V5" V 5915 1773 50  0000 C CNN
F 2 "" H 5800 1350 50  0001 C CNN
F 3 "" H 5900 1450 50  0001 C CNN
	1    5900 1600
	0    1    1    0   
$EndComp
Wire Wire Line
	5900 1600 5850 1600
$Comp
L power_HTE:2V5 #PWR0112
U 1 1 5FC2BBC8
P 5900 2050
F 0 "#PWR0112" H 5900 1900 50  0001 C CNN
F 1 "2V5" V 5915 2223 50  0000 C CNN
F 2 "" H 5800 1800 50  0001 C CNN
F 3 "" H 5900 1900 50  0001 C CNN
	1    5900 2050
	0    1    1    0   
$EndComp
Wire Wire Line
	5900 2050 5850 2050
$Comp
L Connector_HTE:T1M-03-GF-S-RA-TR J2
U 1 1 5FC0830E
P 5450 1700
F 0 "J2" H 5343 1333 50  0000 C CNN
F 1 "T1M-03-GF-S-RA-TR" H 5343 1424 50  0000 C CNN
F 2 "SAMTEC_T1M-03-GF-S-RA-TR" H 5450 1700 50  0001 L BNN
F 3 "/hte/library/DS_SPICE/connectors/t1m-xx-xx-s-ra-tr-mkt.pdf" H 5450 1700 50  0001 L BNN
F 4 "SAMTEC" H 5450 1700 50  0001 C CNN "Manufacturer"
F 5 "T1M-03-GF-S-RA-TR" H 5450 1700 50  0001 C CNN "MPN"
F 6 "SAM14651TR-ND" H 5450 1700 50  0001 C CNN "Digi-Key_PN"
F 7 "https://www.digikey.com/en/products/detail/samtec-inc/T1M-03-GF-S-RA-TR/6613846" H 5450 1700 50  0001 C CNN "DK_Detail_Page"
	1    5450 1700
	-1   0    0    1   
$EndComp
$Comp
L Connector_HTE:T1M-03-GF-S-RA-TR J3
U 1 1 5FC0C24D
P 5450 2150
F 0 "J3" H 5450 2400 50  0000 C CNN
F 1 "T1M-03-GF-S-RA-TR" H 5450 2500 50  0000 C CNN
F 2 "SAMTEC_T1M-03-GF-S-RA-TR" H 5450 2150 50  0001 L BNN
F 3 "/hte/library/DS_SPICE/connectors/t1m-xx-xx-s-ra-tr-mkt.pdf" H 5450 2150 50  0001 L BNN
F 4 "SAMTEC" H 5450 2150 50  0001 C CNN "Manufacturer"
F 5 "T1M-03-GF-S-RA-TR" H 5450 2150 50  0001 C CNN "MPN"
F 6 "SAM14651TR-ND" H 5450 2150 50  0001 C CNN "Digi-Key_PN"
F 7 "https://www.digikey.com/en/products/detail/samtec-inc/T1M-03-GF-S-RA-TR/6613846" H 5450 2150 50  0001 C CNN "DK_Detail_Page"
	1    5450 2150
	-1   0    0    1   
$EndComp
$Comp
L power_HTE:GND #PWR0113
U 1 1 5FCD487A
P 10500 2550
F 0 "#PWR0113" H 10500 2300 50  0001 C CNN
F 1 "GND" H 10500 2425 50  0001 C CNN
F 2 "" H 10500 2550 50  0001 C CNN
F 3 "" H 10500 2550 50  0001 C CNN
	1    10500 2550
	0    -1   1    0   
$EndComp
Wire Wire Line
	7200 2900 6425 2900
Wire Wire Line
	10150 2550 10500 2550
$Comp
L Connector_Generic:Conn_01x01 J14
U 1 1 5FC07814
P 9100 2450
F 0 "J14" H 9050 2550 50  0000 L CNN
F 1 "Conn_01x01" H 9000 2650 50  0001 L CNN
F 2 "TestPoint:TestPoint_Pad_D1.5mm" H 9100 2450 50  0001 C CNN
F 3 "~" H 9100 2450 50  0001 C CNN
	1    9100 2450
	1    0    0    -1  
$EndComp
$Comp
L Connector_Generic:Conn_01x01 J25
U 1 1 5FC090AF
P 9100 2850
F 0 "J25" H 9200 2850 50  0000 L CNN
F 1 "Conn_01x01" H 9050 2700 50  0001 L CNN
F 2 "TestPoint:TestPoint_Pad_D1.5mm" H 9100 2850 50  0001 C CNN
F 3 "~" H 9100 2850 50  0001 C CNN
	1    9100 2850
	1    0    0    -1  
$EndComp
Wire Wire Line
	8900 2450 8700 2450
Wire Wire Line
	8900 2850 8700 2850
Wire Wire Line
	3900 1600 3900 1850
Wire Wire Line
	3800 1150 3800 1900
$Comp
L Switch_HTE:OMRON_B3U-3000P SW1
U 1 1 5FC68813
P 6200 2500
F 0 "SW1" H 6200 2700 50  0000 C CNN
F 1 "OMRON_B3U-3000P" H 6350 2450 50  0000 C CNN
F 2 "Switch_HTE:OMRON_B3U-3000P" H 6200 2700 50  0001 C CNN
F 3 "/hte/library/DS_SPICE/swiches/B3U_1110.pdf" H 6200 2700 50  0001 C CNN
F 4 "Omron" H 6200 2500 50  0001 C CNN "Manufacturer"
F 5 "B3U-3000P" H 6200 2500 50  0001 C CNN "MPN"
F 6 "SW1022CT-ND" H 6200 2500 50  0001 C CNN "Digi-Key_PN"
F 7 "https://www.digikey.com/products/en?keywords=SW1022CT-ND" H 6200 2500 50  0001 C CNN "DK_Detail_Page"
	1    6200 2500
	1    0    0    -1  
$EndComp
Wire Wire Line
	8700 2550 9400 2550
NoConn ~ 8700 2100
NoConn ~ 8700 2200
$Comp
L Connector_Generic:Conn_01x01 J24
U 1 1 5FC88D26
P 9100 2750
F 0 "J24" H 9200 2750 50  0000 L CNN
F 1 "Conn_01x01" H 9050 2600 50  0001 L CNN
F 2 "TestPoint:TestPoint_Pad_D1.5mm" H 9100 2750 50  0001 C CNN
F 3 "~" H 9100 2750 50  0001 C CNN
	1    9100 2750
	1    0    0    -1  
$EndComp
Wire Wire Line
	8900 2750 8700 2750
$Comp
L Connector_Generic:Conn_01x01 J26
U 1 1 5FC8B09B
P 9100 2950
F 0 "J26" H 9200 2950 50  0000 L CNN
F 1 "Conn_01x01" H 9050 2800 50  0001 L CNN
F 2 "TestPoint:TestPoint_Pad_D1.5mm" H 9100 2950 50  0001 C CNN
F 3 "~" H 9100 2950 50  0001 C CNN
	1    9100 2950
	1    0    0    -1  
$EndComp
Wire Wire Line
	8900 2950 8700 2950
$Comp
L Connector_Generic:Conn_01x01 J11
U 1 1 5FC91C12
P 6800 2600
F 0 "J11" H 6850 2625 50  0000 L CNN
F 1 "Conn_01x01" H 6700 2800 50  0001 L CNN
F 2 "TestPoint:TestPoint_Pad_D1.5mm" H 6800 2600 50  0001 C CNN
F 3 "~" H 6800 2600 50  0001 C CNN
	1    6800 2600
	-1   0    0    1   
$EndComp
Wire Wire Line
	7000 2600 7200 2600
$Comp
L Connector_Generic:Conn_01x01 J12
U 1 1 5FC94219
P 6800 2700
F 0 "J12" H 6850 2700 50  0000 L CNN
F 1 "Conn_01x01" H 6700 2900 50  0001 L CNN
F 2 "TestPoint:TestPoint_Pad_D1.5mm" H 6800 2700 50  0001 C CNN
F 3 "~" H 6800 2700 50  0001 C CNN
	1    6800 2700
	-1   0    0    1   
$EndComp
Wire Wire Line
	7000 2700 7200 2700
$Comp
L Connector_Generic:Conn_01x01 J13
U 1 1 5FC969C6
P 6800 2800
F 0 "J13" H 6850 2800 50  0000 L CNN
F 1 "Conn_01x01" H 6700 3000 50  0001 L CNN
F 2 "TestPoint:TestPoint_Pad_D1.5mm" H 6800 2800 50  0001 C CNN
F 3 "~" H 6800 2800 50  0001 C CNN
	1    6800 2800
	-1   0    0    1   
$EndComp
Wire Wire Line
	7000 2800 7200 2800
Wire Wire Line
	5950 2600 5950 2500
Wire Wire Line
	5950 2500 6000 2500
$EndSCHEMATC
