EESchema Schematic File Version 4
EELAYER 30 0
EELAYER END
$Descr A4 11693 8268
encoding utf-8
Sheet 1 1
Title ""
Date ""
Rev ""
Comp ""
Comment1 ""
Comment2 ""
Comment3 ""
Comment4 ""
$EndDescr
$Comp
L IC_MCU_HTE:NRF52840-QIAA U2
U 1 1 5D997935
P 3000 4600
F 0 "U2" H 3850 7250 50  0000 C CNN
F 1 "nRF52840-QIAA" H 2200 1950 50  0000 C CNN
F 2 "Package_DFN_QFN:Nordic_AQFN-73-1EP_7x7mm_P0.5mm" H 3000 1700 50  0001 C CNN
F 3 "/hte/library/DS_SPICE/ic/MCU/Nordic/nRF52840/nRF52840_PS_v1.1.pdf" H 2350 6500 50  0001 C CNN
F 4 "https://www.digikey.com/en/products/detail/nordic-semiconductor-asa/NRF52840-QIAA-R7/11200025" H 3000 4600 50  0001 C CNN "DK_Detail_Page"
F 5 "1490-NRF52840-QIAA-R7TR-ND" H 3000 4600 50  0001 C CNN "Digi-Key_PN"
F 6 "NRF52840-QIAA-R7" H 3000 4600 50  0001 C CNN "MPN"
F 7 "Nordic" H 3000 4600 50  0001 C CNN "Manufacturer"
	1    3000 4600
	1    0    0    -1  
$EndComp
$Comp
L Device:C C5
U 1 1 5DA6031F
P 1600 1800
F 0 "C5" V 1650 1650 50  0000 C CNN
F 1 "u10" V 1650 1950 50  0000 C CNN
F 2 "Capacitor_SMD:C_0402_1005Metric" H 1638 1650 50  0001 C CNN
F 3 "~" H 1600 1800 50  0001 C CNN
F 4 "generic" V 1600 1800 50  0001 C CNN "Manufacturer"
F 5 "CC0402_u10_10%_50V_X7R" V 1600 1800 50  0001 C CNN "MPN"
	1    1600 1800
	0    1    1    0   
$EndComp
Wire Wire Line
	1450 1800 1400 1800
Wire Wire Line
	1750 1800 2200 1800
$Comp
L Crystal_Seiko_SC20S_HTE:32768Hz_7p Y2
U 1 1 5DA6C170
P 4450 2000
F 0 "Y2" H 4450 2268 50  0000 C CNN
F 1 "32768" H 4450 2177 50  0000 C CNN
F 2 "Crystal_HTE:FC12M" H 4450 2000 50  0001 C CNN
F 3 "/hte/library/DS_SPICE/crystal_osc/SC-20S_Leaflet_e20151217.pdf" H 4450 2000 50  0001 C CNN
F 4 "https://www.digikey.com/en/products/detail/seiko-instruments/SC20S-7PF20PPM/4931506" H 4450 2000 50  0001 C CNN "DK_Detail_Page"
F 5 "728-1076-2-ND" H 4450 2000 50  0001 C CNN "Digi-Key_PN"
F 6 "SC20S-7PF20PPM" H 4450 2000 50  0001 C CNN "MPN"
F 7 "Seiko" H 4450 2000 50  0001 C CNN "Manufacturer"
	1    4450 2000
	1    0    0    -1  
$EndComp
$Comp
L Device:C C17
U 1 1 5DA6D632
P 4300 1700
F 0 "C17" H 4100 1800 50  0000 L CNN
F 1 "12p" H 4100 1600 50  0000 L CNN
F 2 "Capacitor_SMD:C_0402_1005Metric" H 4338 1550 50  0001 C CNN
F 3 "~" H 4300 1700 50  0001 C CNN
F 4 "generic" H 4300 1700 50  0001 C CNN "Manufacturer"
F 5 "CC0402_12p_5%_50V_NP0" H 4300 1700 50  0001 C CNN "MPN"
	1    4300 1700
	1    0    0    -1  
$EndComp
$Comp
L Device:C C18
U 1 1 5DA6DFA6
P 4600 1700
F 0 "C18" H 4715 1746 50  0000 L CNN
F 1 "12p" H 4715 1655 50  0000 L CNN
F 2 "Capacitor_SMD:C_0402_1005Metric" H 4638 1550 50  0001 C CNN
F 3 "~" H 4600 1700 50  0001 C CNN
F 4 "Generic" H 4600 1700 50  0001 C CNN "Manufacturer"
F 5 "CC0402_12p_5%_50V_NP0" H 4600 1700 50  0001 C CNN "MPN"
	1    4600 1700
	1    0    0    -1  
$EndComp
Wire Wire Line
	4300 1500 4300 1550
Wire Wire Line
	4300 1850 4300 2000
Wire Wire Line
	4300 2000 4300 2100
Connection ~ 4300 2000
Wire Wire Line
	4600 1550 4600 1500
$Comp
L Device:C C13
U 1 1 5DA78C2C
P 1800 1650
F 0 "C13" V 1750 1500 50  0000 C CNN
F 1 "DNP" V 1750 1800 50  0000 C CNN
F 2 "Capacitor_SMD:C_0402_1005Metric" H 1838 1500 50  0001 C CNN
F 3 "~" H 1800 1650 50  0001 C CNN
F 4 "DNP" V 1800 1650 50  0001 C CNN "Manufacturer"
F 5 "DNP" V 1800 1650 50  0001 C CNN "MPN"
	1    1800 1650
	0    1    1    0   
$EndComp
Wire Wire Line
	1550 1650 1650 1650
Wire Wire Line
	1950 1650 2300 1650
Wire Wire Line
	2300 1650 2300 1800
$Comp
L Device:C C11
U 1 1 5DA7DA22
P 2100 1500
F 0 "C11" V 2050 1350 50  0000 C CNN
F 1 "n10" V 2150 1600 50  0000 C CNN
F 2 "Capacitor_SMD:C_0402_1005Metric" H 2138 1350 50  0001 C CNN
F 3 "~" H 2100 1500 50  0001 C CNN
F 4 "generic" V 2100 1500 50  0001 C CNN "Manufacturer"
F 5 "CC0402_n10_5%_50V_NP0" V 2100 1500 50  0001 C CNN "MPN"
	1    2100 1500
	0    1    1    0   
$EndComp
Wire Wire Line
	1400 1500 1950 1500
Wire Wire Line
	2250 1500 2400 1500
Wire Wire Line
	2400 1500 2400 1800
$Comp
L Device:C C9
U 1 1 5DA96981
P 1800 1350
F 0 "C9" V 1750 1200 50  0000 C CNN
F 1 "n82" V 1750 1500 50  0000 C CNN
F 2 "Capacitor_SMD:C_0402_1005Metric" H 1838 1200 50  0001 C CNN
F 3 "~" H 1800 1350 50  0001 C CNN
F 4 "generic" V 1800 1350 50  0001 C CNN "Manufacturer"
F 5 "CC0402_n82_5%_50V_NP0" V 1800 1350 50  0001 C CNN "MPN"
	1    1800 1350
	0    1    1    0   
$EndComp
Wire Wire Line
	1600 1350 1650 1350
Wire Wire Line
	1950 1350 2600 1350
Wire Wire Line
	2600 1350 2600 1800
$Comp
L Device:C C15
U 1 1 5DA9B2BD
P 2100 1250
F 0 "C15" V 2050 1100 50  0000 C CNN
F 1 "1u0" V 2050 1400 50  0000 C CNN
F 2 "Capacitor_SMD:C_0603_1608Metric" H 2138 1100 50  0001 C CNN
F 3 "~" H 2100 1250 50  0001 C CNN
F 4 "generic" V 2100 1250 50  0001 C CNN "Manufacturer"
F 5 "CC0603_1u0_10%_25V_X7R" V 2100 1250 50  0001 C CNN "MPN"
	1    2100 1250
	0    1    1    0   
$EndComp
$Comp
L Device:C C10
U 1 1 5DA9B78A
P 2350 1150
F 0 "C10" V 2300 1000 50  0000 C CNN
F 1 "DNP" V 2300 1300 50  0000 C CNN
F 2 "Capacitor_SMD:C_0402_1005Metric" H 2388 1000 50  0001 C CNN
F 3 "~" H 2350 1150 50  0001 C CNN
F 4 "DNP" V 2350 1150 50  0001 C CNN "Manufacturer"
F 5 "DNP" V 2350 1150 50  0001 C CNN "MPN"
	1    2350 1150
	0    1    1    0   
$EndComp
Wire Wire Line
	1950 1250 1850 1250
Wire Wire Line
	1850 1250 1850 1150
Wire Wire Line
	1850 1150 1750 1150
Wire Wire Line
	1850 1150 2200 1150
Connection ~ 1850 1150
Wire Wire Line
	2500 1150 2500 1250
Wire Wire Line
	2500 1150 2700 1150
Wire Wire Line
	2700 1150 2700 1800
Connection ~ 2500 1150
Wire Wire Line
	2250 1250 2500 1250
Connection ~ 2500 1250
Wire Wire Line
	2500 1250 2500 1800
$Comp
L Device:C C6
U 1 1 5DAB2562
P 3950 1300
F 0 "C6" H 3800 1400 50  0000 L CNN
F 1 "4u7" H 3800 1200 50  0000 L CNN
F 2 "Capacitor_SMD:C_0603_1608Metric" H 3988 1150 50  0001 C CNN
F 3 "~" H 3950 1300 50  0001 C CNN
F 4 "generic" H 3950 1300 50  0001 C CNN "Manufacturer"
F 5 "CC0603_4u7_10%_16V_X5R" H 3950 1300 50  0001 C CNN "MPN"
	1    3950 1300
	1    0    0    -1  
$EndComp
$Comp
L Device:C C7
U 1 1 5DAB4233
P 3150 1300
F 0 "C7" H 3000 1400 50  0000 L CNN
F 1 "u10" H 3000 1200 50  0000 L CNN
F 2 "Capacitor_SMD:C_0402_1005Metric" H 3188 1150 50  0001 C CNN
F 3 "~" H 3150 1300 50  0001 C CNN
F 4 "generic" H 3150 1300 50  0001 C CNN "Manufacturer"
F 5 "CC0402_u10_10%_50V_X7R" H 3150 1300 50  0001 C CNN "MPN"
	1    3150 1300
	1    0    0    -1  
$EndComp
$Comp
L Device:C C8
U 1 1 5DAB47C3
P 3350 1300
F 0 "C8" H 3200 1400 50  0000 L CNN
F 1 "u10" H 3200 1200 50  0000 L CNN
F 2 "Capacitor_SMD:C_0402_1005Metric" H 3388 1150 50  0001 C CNN
F 3 "~" H 3350 1300 50  0001 C CNN
F 4 "generic" H 3350 1300 50  0001 C CNN "Manufacturer"
F 5 "CC0402_u10_10%_50V_X7R" H 3350 1300 50  0001 C CNN "MPN"
	1    3350 1300
	1    0    0    -1  
$EndComp
$Comp
L Device:C C12
U 1 1 5DAB4DF6
P 3550 1300
F 0 "C12" H 3400 1400 50  0000 L CNN
F 1 "u10" H 3400 1200 50  0000 L CNN
F 2 "Capacitor_SMD:C_0402_1005Metric" H 3588 1150 50  0001 C CNN
F 3 "~" H 3550 1300 50  0001 C CNN
F 4 "generic" H 3550 1300 50  0001 C CNN "Manufacturer"
F 5 "CC0402_u10_10%_50V_X7R" H 3550 1300 50  0001 C CNN "MPN"
	1    3550 1300
	1    0    0    -1  
$EndComp
$Comp
L Device:C C14
U 1 1 5DAB5451
P 3750 1300
F 0 "C14" H 3600 1400 50  0000 L CNN
F 1 "1u0" H 3600 1200 50  0000 L CNN
F 2 "Capacitor_SMD:C_0603_1608Metric" H 3788 1150 50  0001 C CNN
F 3 "~" H 3750 1300 50  0001 C CNN
F 4 "generic" H 3750 1300 50  0001 C CNN "Manufacturer"
F 5 "CC0603_1u0_10%_25V_X7R" H 3750 1300 50  0001 C CNN "MPN"
	1    3750 1300
	1    0    0    -1  
$EndComp
Wire Wire Line
	3100 1800 3000 1800
Wire Wire Line
	3000 1800 3000 1150
Wire Wire Line
	3000 1150 3150 1150
Connection ~ 3000 1800
Connection ~ 3150 1150
Wire Wire Line
	3150 1150 3350 1150
Connection ~ 3350 1150
Wire Wire Line
	3350 1150 3550 1150
Connection ~ 3550 1150
Wire Wire Line
	3550 1150 3750 1150
Wire Wire Line
	3150 1500 3150 1450
Wire Wire Line
	3350 1500 3350 1450
Wire Wire Line
	3550 1500 3550 1450
Wire Wire Line
	3750 1500 3750 1450
Wire Wire Line
	3750 1150 3950 1150
Connection ~ 3750 1150
NoConn ~ 3400 1800
NoConn ~ 3500 1800
$Comp
L Device:C C2
U 1 1 5DB01361
P 1300 4800
F 0 "C2" V 1400 4650 50  0000 C CNN
F 1 "12p" V 1400 4950 50  0000 C CNN
F 2 "Capacitor_SMD:C_0402_1005Metric" H 1338 4650 50  0001 C CNN
F 3 "~" H 1300 4800 50  0001 C CNN
F 4 "generic" V 1300 4800 50  0001 C CNN "Manufacturer"
F 5 "CC0402_12p_5%_50V_NP0" V 1300 4800 50  0001 C CNN "MPN"
	1    1300 4800
	0    1    1    0   
$EndComp
$Comp
L Device:C C3
U 1 1 5DB1DEAB
P 1500 3000
F 0 "C3" H 1350 3100 50  0000 L CNN
F 1 "1p0" H 1350 2900 50  0000 L CNN
F 2 "Capacitor_SMD:C_0402_1005Metric" H 1538 2850 50  0001 C CNN
F 3 "~" H 1500 3000 50  0001 C CNN
F 4 "generic" H 1500 3000 50  0001 C CNN "Manufacturer"
F 5 "CC0402_1p0_+/-0.1p_50V_NP0" H 1500 3000 50  0001 C CNN "MPN"
	1    1500 3000
	1    0    0    -1  
$EndComp
$Comp
L Device:L L1
U 1 1 5DB1EB10
P 1300 2800
F 0 "L1" V 1490 2800 50  0000 C CNN
F 1 "3n9" V 1399 2800 50  0000 C CNN
F 2 "Inductor_SMD:L_0402_1005Metric" H 1300 2800 50  0001 C CNN
F 3 "~" H 1300 2800 50  0001 C CNN
F 4 "generic" V 1300 2800 50  0001 C CNN "Manufacturer"
F 5 "L0402_3n9" V 1300 2800 50  0001 C CNN "MPN"
	1    1300 2800
	0    -1   -1   0   
$EndComp
$Comp
L Device:C C4
U 1 1 5DB209D5
P 1100 3000
F 0 "C4" H 1150 3100 50  0000 L CNN
F 1 "1p0" H 1150 2900 50  0000 L CNN
F 2 "Capacitor_SMD:C_0402_1005Metric" H 1138 2850 50  0001 C CNN
F 3 "~" H 1100 3000 50  0001 C CNN
F 4 "generic" H 1100 3000 50  0001 C CNN "Manufacturer"
F 5 "CC0402_1p0_+/-0.1p_50V_NP0" H 1100 3000 50  0001 C CNN "MPN"
	1    1100 3000
	1    0    0    -1  
$EndComp
Wire Wire Line
	1150 2800 1100 2800
Wire Wire Line
	1100 2850 1100 2800
Connection ~ 1100 2800
Wire Wire Line
	1100 2800 900  2800
Wire Wire Line
	1100 3150 1100 3200
$Comp
L Crystal_Murata_XRCGB:32Mhz Y1
U 1 1 5DB8DE7A
P 1450 4600
F 0 "Y1" V 1400 4050 50  0000 L CNN
F 1 "32M" V 1500 4050 50  0000 L CNN
F 2 "Crystal_HTE:4-SMD_200X160" H 1450 4600 50  0001 C CNN
F 3 "/hte/library/DS_SPICE/crystal_osc/Murata/SPEC-XRCGB32M000F1H01R0.pdf" H 1450 4600 50  0001 C CNN
F 4 "https://www.digikey.com/en/products/detail/murata-electronics/XRCGB32M000F1H01R0/9959691" H 1450 4600 50  0001 C CNN "DK_Detail_Page"
F 5 "490-18334-2-ND" H 1450 4600 50  0001 C CNN "Digi-Key_PN"
F 6 "XRCGB32M000F1H01R0" H 1450 4600 50  0001 C CNN "MPN"
F 7 "Murata Electronics" H 1450 4600 50  0001 C CNN "Manufacturer"
	1    1450 4600
	0    1    1    0   
$EndComp
Wire Wire Line
	1150 4800 1100 4800
Wire Wire Line
	1150 4400 1100 4400
Wire Wire Line
	10400 1000 10450 1000
Wire Wire Line
	10400 1400 10450 1400
Wire Wire Line
	10400 1500 10700 1500
Wire Wire Line
	10400 1800 10700 1800
Wire Wire Line
	10400 1900 10700 1900
Wire Wire Line
	10400 1300 10700 1300
Wire Wire Line
	10400 1100 10700 1100
Text Label 10700 1100 2    50   ~ 0
SWD
Text Label 10700 1300 2    50   ~ 0
SWC
Text Label 10700 1500 2    50   ~ 0
SWO
Text Label 10700 1700 2    50   ~ 0
RX
Text Label 10700 1800 2    50   ~ 0
TX
Text Label 10700 1900 2    50   ~ 0
RST
Text Label 4500 2900 2    50   ~ 0
RST
Text Label 1500 6400 0    50   ~ 0
SWC
Text Label 1500 6500 0    50   ~ 0
SWD
Text Label 4500 5300 2    50   ~ 0
SWO
Wire Wire Line
	4300 5300 4500 5300
Wire Wire Line
	1500 6500 1700 6500
Wire Wire Line
	1500 6400 1700 6400
$Comp
L Device:R R1
U 1 1 5DAF0598
P 5200 2450
F 0 "R1" H 5300 2500 50  0000 C CNN
F 1 "1M0" H 5300 2600 50  0000 C CNN
F 2 "Resistor_SMD:R_0402_1005Metric" V 5130 2450 50  0001 C CNN
F 3 "~" H 5200 2450 50  0001 C CNN
F 4 "generic" H 5200 2450 50  0001 C CNN "Manufacturer"
F 5 "R0402_1M0_1%" H 5200 2450 50  0001 C CNN "MPN"
	1    5200 2450
	-1   0    0    1   
$EndComp
$Comp
L Device:R R2
U 1 1 5DAF0EF8
P 5600 2300
F 0 "R2" V 5700 2350 50  0000 C CNN
F 1 "2M0" V 5800 2400 50  0000 C CNN
F 2 "Resistor_SMD:R_0402_1005Metric" V 5530 2300 50  0001 C CNN
F 3 "~" H 5600 2300 50  0001 C CNN
F 4 "generic" V 5600 2300 50  0001 C CNN "Manufacturer"
F 5 "R0402_2M0_1%" V 5600 2300 50  0001 C CNN "MPN"
	1    5600 2300
	0    1    1    0   
$EndComp
Wire Wire Line
	4300 2200 4600 2200
Text Label 5900 2300 2    50   ~ 0
BAT
$Comp
L Device:C C24
U 1 1 5DAFB520
P 5400 2450
F 0 "C24" H 5400 2350 50  0000 L CNN
F 1 "1u0" H 5450 2250 50  0000 L CNN
F 2 "Capacitor_SMD:C_0402_1005Metric" H 5438 2300 50  0001 C CNN
F 3 "~" H 5400 2450 50  0001 C CNN
F 4 "generic" H 5400 2450 50  0001 C CNN "Manufacturer"
F 5 "CC0402_1u0_10%_10V_X5R" H 5400 2450 50  0001 C CNN "MPN"
	1    5400 2450
	1    0    0    -1  
$EndComp
Connection ~ 5200 2300
Wire Wire Line
	5200 2300 5400 2300
Connection ~ 5400 2300
Wire Wire Line
	5400 2300 5450 2300
Wire Wire Line
	5200 2650 5200 2600
Wire Wire Line
	5400 2650 5400 2600
Wire Wire Line
	5750 2300 5900 2300
Wire Wire Line
	4300 2300 5200 2300
Text Label 4700 4400 2    50   ~ 0
SCL
Text Label 4700 4500 2    50   ~ 0
SDA
Wire Wire Line
	4300 4400 4700 4400
Wire Wire Line
	4300 4500 4700 4500
Text Label 4650 4200 2    50   ~ 0
RX
Text Label 4750 3800 2    50   ~ 0
TX
Wire Wire Line
	4300 4200 4650 4200
$Comp
L Device:R R5
U 1 1 5DFB08D7
P 6100 5200
F 0 "R5" V 6000 5150 50  0000 C CNN
F 1 "K39" V 6000 5300 50  0000 C CNN
F 2 "Resistor_SMD:R_0402_1005Metric" V 6030 5200 50  0001 C CNN
F 3 "~" H 6100 5200 50  0001 C CNN
F 4 "generic" V 6100 5200 50  0001 C CNN "Manufacturer"
F 5 "R0402_K39_1%" V 6100 5200 50  0001 C CNN "MPN"
	1    6100 5200
	0    1    1    0   
$EndComp
$Comp
L Device:C C22
U 1 1 5DFB08DD
P 5750 5650
F 0 "C22" H 5600 5750 50  0000 L CNN
F 1 "2u2" H 5600 5550 50  0000 L CNN
F 2 "Capacitor_SMD:C_0402_1005Metric" H 5788 5500 50  0001 C CNN
F 3 "~" H 5750 5650 50  0001 C CNN
F 4 "generic" H 5750 5650 50  0001 C CNN "Manufacturer"
F 5 "CC0402_2u2_10%_16V_X5R" H 5750 5650 50  0001 C CNN "MPN"
	1    5750 5650
	1    0    0    -1  
$EndComp
$Comp
L Device:R R6
U 1 1 5DFB08E3
P 7750 5400
F 0 "R6" H 7650 5350 50  0000 C CNN
F 1 "2K2" H 7650 5250 50  0000 C CNN
F 2 "Resistor_SMD:R_0402_1005Metric" V 7680 5400 50  0001 C CNN
F 3 "~" H 7750 5400 50  0001 C CNN
F 4 "generic" H 7750 5400 50  0001 C CNN "Manufacturer"
F 5 "R0402_2K2_1%" H 7750 5400 50  0001 C CNN "MPN"
	1    7750 5400
	1    0    0    -1  
$EndComp
Wire Wire Line
	7650 5200 7750 5200
Wire Wire Line
	7750 5200 7750 5250
Wire Wire Line
	6650 5400 6600 5400
Wire Wire Line
	6650 5200 6600 5200
Wire Wire Line
	6300 5200 6250 5200
Wire Wire Line
	7750 5550 7750 5900
Wire Wire Line
	7300 5600 7300 5900
Wire Wire Line
	7050 5600 7050 5900
Wire Wire Line
	6600 5400 6600 5900
Wire Wire Line
	7750 5900 7300 5900
Connection ~ 7300 5900
Wire Wire Line
	7300 5900 7050 5900
Connection ~ 7050 5900
Wire Wire Line
	7050 5900 6600 5900
Connection ~ 6600 5900
$Comp
L DisplayLED_HTE:LW_Q38E-Q1OO-3K6L-1 D2
U 1 1 5DFB0999
P 6450 5200
F 0 "D2" H 6450 5100 50  0000 C CNN
F 1 "LW_Q38E-Q1OO-3K6L-1" H 6650 5300 50  0000 C CNN
F 2 "LED_SMD:LED_0603_1608Metric" H 6450 5200 50  0001 C CNN
F 3 "/hte/library/DS_SPICE/LED/0603/red/SML-LX0603SRW-TR.pdf" H 6450 5200 50  0001 C CNN
F 4 "Osram" H 6450 5200 50  0001 C CNN "Manufacturer"
F 5 "LW Q38E-Q1OO-3K6L-1" H 6450 5200 50  0001 C CNN "MPN"
F 6 "https://www.digikey.com/en/products/detail/osram-opto-semiconductors-inc/LW-Q38E-Q1OO-3K6L-1/2176337" H 6450 5200 50  0001 C CNN "DK_Detail_Page"
F 7 "475-2831-2-ND" H 6450 5200 50  0001 C CNN "Digi-Key_PN"
	1    6450 5200
	-1   0    0    1   
$EndComp
Text Label 8300 5000 2    50   ~ 0
BAT
Connection ~ 3950 1150
Wire Wire Line
	3950 1150 4150 1150
Wire Wire Line
	3950 1450 3950 1500
$Comp
L Device:C C20
U 1 1 5E270853
P 2800 1400
F 0 "C20" H 2800 1500 50  0000 L CNN
F 1 "4u7" H 2800 1300 50  0000 L CNN
F 2 "Capacitor_SMD:C_0603_1608Metric" H 2838 1250 50  0001 C CNN
F 3 "~" H 2800 1400 50  0001 C CNN
F 4 "generic" H 2800 1400 50  0001 C CNN "Manufacturer"
F 5 "CC0603_4u7_10%_16V_X5R" H 2800 1400 50  0001 C CNN "MPN"
	1    2800 1400
	1    0    0    -1  
$EndComp
Wire Wire Line
	2800 1200 2800 1250
Wire Wire Line
	2800 1550 2800 1800
$Comp
L Device:C C21
U 1 1 5E2978B6
P 3600 1700
F 0 "C21" V 3550 1750 50  0000 L CNN
F 1 "4u7" V 3650 1750 50  0000 L CNN
F 2 "Capacitor_SMD:C_0603_1608Metric" H 3638 1550 50  0001 C CNN
F 3 "~" H 3600 1700 50  0001 C CNN
F 4 "generic" V 3600 1700 50  0001 C CNN "Manufacturer"
F 5 "CC0603_4u7_10%_16V_X5R" V 3600 1700 50  0001 C CNN "MPN"
	1    3600 1700
	0    1    1    0   
$EndComp
Wire Wire Line
	3200 1800 3200 1700
Wire Wire Line
	3200 1700 3450 1700
Wire Wire Line
	3750 1700 3800 1700
Text Label 3400 1700 2    50   ~ 0
VBUS
Text Label 5900 5000 2    50   ~ 0
VBUS
Text Label 4750 7300 0    50   ~ 0
VBUS
Wire Wire Line
	4750 7300 4950 7300
Wire Wire Line
	4300 7000 4950 7000
Wire Wire Line
	4300 7100 4950 7100
NoConn ~ 4950 6900
Wire Wire Line
	5250 6700 5350 6700
Connection ~ 5350 6700
Wire Wire Line
	5350 6700 5400 6700
Text Notes 3500 850  2    50   ~ 0
Move from var. 3 to var.4 layout
Text Notes 4600 4900 0    50   ~ 0
low
Text Notes 4600 5100 0    50   ~ 0
low
Text Notes 4600 6800 0    50   ~ 0
low
Text Notes 4600 6600 0    50   ~ 0
low
Text Notes 4600 6300 0    50   ~ 0
low
Text Notes 4600 5000 0    50   ~ 0
low
Text Notes 4600 4800 0    50   ~ 0
low
Text Notes 4600 2400 0    50   ~ 0
low
Text Notes 4600 6400 0    50   ~ 0
low
Text Notes 4600 6500 0    50   ~ 0
low
Text Notes 4600 6700 0    50   ~ 0
low
Text Notes 4600 4600 0    50   ~ 0
high
Text Notes 4800 3800 0    50   ~ 0
high
Text Notes 4600 2500 0    50   ~ 0
high
Text Notes 4600 5600 0    50   ~ 0
low
Text Notes 4600 2600 0    50   ~ 0
high
Text Notes 4600 2700 0    50   ~ 0
high
Text Notes 4600 3000 0    50   ~ 0
low
Text Notes 4600 2800 0    50   ~ 0
high
Text Notes 4600 2900 0    50   ~ 0
high
Text Notes 4600 6100 0    50   ~ 0
high
Text Notes 4600 6000 0    50   ~ 0
low
Text Notes 4600 6200 0    50   ~ 0
high
Text Notes 4600 5900 0    50   ~ 0
low
Text Notes 4600 3200 0    50   ~ 0
high
Text Notes 4600 5800 0    50   ~ 0
low
Text Notes 4600 3300 0    50   ~ 0
high
Text Notes 4600 5400 0    50   ~ 0
low
Text Notes 4600 5500 0    50   ~ 0
low
Text Notes 4600 3100 0    50   ~ 0
low
Text Notes 4600 5700 0    50   ~ 0
low
Text Notes 4600 3500 0    50   ~ 0
high
Text Notes 4600 3700 0    50   ~ 0
high
Text Notes 4600 3900 0    50   ~ 0
high
Text Notes 4600 4100 0    50   ~ 0
high
Text Notes 4600 4300 0    50   ~ 0
high
Text Notes 4600 3400 0    50   ~ 0
high
Text Notes 4600 3600 0    50   ~ 0
high
Text Notes 4600 4000 0    50   ~ 0
high
Text Notes 4700 4200 0    50   ~ 0
high
Text Notes 4750 4400 0    50   ~ 0
high
Text Notes 4750 4500 0    50   ~ 0
high
Text Notes 4650 2250 0    50   ~ 0
pin U2.A12 swappadle with U2 pins:\nA8,A10,B9,B11,B13\n
Text Label 4400 2300 0    50   ~ 0
ADC
Text Label 4800 3600 0    50   ~ 0
LED
Text Notes 4600 4700 0    50   ~ 0
high
Wire Wire Line
	4300 3800 4750 3800
$Comp
L Device:Antenna_Shield AE1
U 1 1 5DB1E39F
P 900 2600
F 0 "AE1" H 820 2593 50  0000 R CNN
F 1 "Antenna_Shield" H 820 2548 50  0001 R CNN
F 2 "RF_Antenna:Texas_SWRA117D_2.4GHz_Left" H 900 2700 50  0001 C CNN
F 3 "~" H 900 2700 50  0001 C CNN
	1    900  2600
	-1   0    0    -1  
$EndComp
Wire Wire Line
	750  2800 800  2800
Text Label 1950 1800 0    50   ~ 0
DEC1
Text Label 2150 1650 0    50   ~ 0
DEC2
Text Label 2400 1500 2    50   ~ 0
DEC3
Text Label 2500 1750 1    50   ~ 0
DEC46
Text Label 2600 1750 1    50   ~ 0
DEC5
Text Label 2800 1800 1    50   ~ 0
DECUSB
Text Label 4300 1950 2    50   ~ 0
XL1
Text Label 4600 1950 0    50   ~ 0
XL2
Wire Wire Line
	1450 2800 1500 2800
Wire Wire Line
	1500 2850 1500 2800
Connection ~ 1500 2800
Wire Wire Line
	1500 2800 1700 2800
Wire Wire Line
	1500 3200 1500 3150
Text Label 950  2800 0    50   ~ 0
ANT
Wire Wire Line
	1450 4400 1700 4400
Wire Wire Line
	1450 4800 1700 4800
Text Label 1550 4400 0    50   ~ 0
XC1
Text Label 1550 4800 0    50   ~ 0
XC2
Text Label 4500 7000 0    50   ~ 0
D-
Text Label 4500 7100 0    50   ~ 0
D+
Text Label 1550 2800 0    50   ~ 0
RF
Wire Wire Line
	10700 1700 10400 1700
$Comp
L power_HTE:GND #PWR036
U 1 1 5E42666F
P 10450 1400
F 0 "#PWR036" H 10450 1150 50  0001 C CNN
F 1 "GND" H 10450 1275 50  0001 C CNN
F 2 "" H 10450 1400 50  0001 C CNN
F 3 "" H 10450 1400 50  0001 C CNN
	1    10450 1400
	0    -1   -1   0   
$EndComp
$Comp
L power_HTE:GND #PWR031
U 1 1 5E434820
P 7300 5900
F 0 "#PWR031" H 7300 5650 50  0001 C CNN
F 1 "GND" H 7300 5775 50  0001 C CNN
F 2 "" H 7300 5900 50  0001 C CNN
F 3 "" H 7300 5900 50  0001 C CNN
	1    7300 5900
	1    0    0    -1  
$EndComp
$Comp
L power_HTE:GND #PWR026
U 1 1 5E43AE1D
P 5400 6700
F 0 "#PWR026" H 5400 6450 50  0001 C CNN
F 1 "GND" H 5400 6575 50  0001 C CNN
F 2 "" H 5400 6700 50  0001 C CNN
F 3 "" H 5400 6700 50  0001 C CNN
	1    5400 6700
	0    -1   -1   0   
$EndComp
Wire Wire Line
	3000 7400 3050 7400
$Comp
L power_HTE:GND #PWR014
U 1 1 5E43CC3D
P 3050 7400
F 0 "#PWR014" H 3050 7150 50  0001 C CNN
F 1 "GND" H 3050 7275 50  0001 C CNN
F 2 "" H 3050 7400 50  0001 C CNN
F 3 "" H 3050 7400 50  0001 C CNN
	1    3050 7400
	1    0    0    -1  
$EndComp
Connection ~ 3050 7400
Wire Wire Line
	3050 7400 3100 7400
$Comp
L power_HTE:GND #PWR011
U 1 1 5E440B3A
P 1700 4600
F 0 "#PWR011" H 1700 4350 50  0001 C CNN
F 1 "GND" H 1700 4475 50  0001 C CNN
F 2 "" H 1700 4600 50  0001 C CNN
F 3 "" H 1700 4600 50  0001 C CNN
	1    1700 4600
	0    -1   -1   0   
$EndComp
$Comp
L power_HTE:GND #PWR05
U 1 1 5E4410E8
P 1200 4600
F 0 "#PWR05" H 1200 4350 50  0001 C CNN
F 1 "GND" H 1200 4475 50  0001 C CNN
F 2 "" H 1200 4600 50  0001 C CNN
F 3 "" H 1200 4600 50  0001 C CNN
	1    1200 4600
	0    1    1    0   
$EndComp
$Comp
L power_HTE:GND #PWR03
U 1 1 5E441632
P 1100 4400
F 0 "#PWR03" H 1100 4150 50  0001 C CNN
F 1 "GND" H 1100 4275 50  0001 C CNN
F 2 "" H 1100 4400 50  0001 C CNN
F 3 "" H 1100 4400 50  0001 C CNN
	1    1100 4400
	0    1    1    0   
$EndComp
$Comp
L power_HTE:GND #PWR04
U 1 1 5E441E7A
P 1100 4800
F 0 "#PWR04" H 1100 4550 50  0001 C CNN
F 1 "GND" H 1100 4675 50  0001 C CNN
F 2 "" H 1100 4800 50  0001 C CNN
F 3 "" H 1100 4800 50  0001 C CNN
	1    1100 4800
	0    1    1    0   
$EndComp
$Comp
L power_HTE:GND #PWR01
U 1 1 5E4475B9
P 750 2800
F 0 "#PWR01" H 750 2550 50  0001 C CNN
F 1 "GND" H 750 2675 50  0001 C CNN
F 2 "" H 750 2800 50  0001 C CNN
F 3 "" H 750 2800 50  0001 C CNN
	1    750  2800
	0    1    1    0   
$EndComp
$Comp
L power_HTE:GND #PWR02
U 1 1 5E458BB8
P 1100 3200
F 0 "#PWR02" H 1100 2950 50  0001 C CNN
F 1 "GND" H 1100 3075 50  0001 C CNN
F 2 "" H 1100 3200 50  0001 C CNN
F 3 "" H 1100 3200 50  0001 C CNN
	1    1100 3200
	1    0    0    -1  
$EndComp
$Comp
L power_HTE:GND #PWR08
U 1 1 5E458FA7
P 1500 3200
F 0 "#PWR08" H 1500 2950 50  0001 C CNN
F 1 "GND" H 1500 3075 50  0001 C CNN
F 2 "" H 1500 3200 50  0001 C CNN
F 3 "" H 1500 3200 50  0001 C CNN
	1    1500 3200
	1    0    0    -1  
$EndComp
$Comp
L power_HTE:GND #PWR012
U 1 1 5E45E6E6
P 1750 1150
F 0 "#PWR012" H 1750 900 50  0001 C CNN
F 1 "GND" H 1750 1025 50  0001 C CNN
F 2 "" H 1750 1150 50  0001 C CNN
F 3 "" H 1750 1150 50  0001 C CNN
	1    1750 1150
	0    1    1    0   
$EndComp
$Comp
L power_HTE:GND #PWR010
U 1 1 5E45EBFA
P 1600 1350
F 0 "#PWR010" H 1600 1100 50  0001 C CNN
F 1 "GND" H 1600 1225 50  0001 C CNN
F 2 "" H 1600 1350 50  0001 C CNN
F 3 "" H 1600 1350 50  0001 C CNN
	1    1600 1350
	0    1    1    0   
$EndComp
$Comp
L power_HTE:GND #PWR06
U 1 1 5E45F041
P 1400 1500
F 0 "#PWR06" H 1400 1250 50  0001 C CNN
F 1 "GND" H 1400 1375 50  0001 C CNN
F 2 "" H 1400 1500 50  0001 C CNN
F 3 "" H 1400 1500 50  0001 C CNN
	1    1400 1500
	0    1    1    0   
$EndComp
$Comp
L power_HTE:GND #PWR09
U 1 1 5E45F572
P 1550 1650
F 0 "#PWR09" H 1550 1400 50  0001 C CNN
F 1 "GND" H 1550 1525 50  0001 C CNN
F 2 "" H 1550 1650 50  0001 C CNN
F 3 "" H 1550 1650 50  0001 C CNN
	1    1550 1650
	0    1    1    0   
$EndComp
$Comp
L power_HTE:GND #PWR07
U 1 1 5E45F9E5
P 1400 1800
F 0 "#PWR07" H 1400 1550 50  0001 C CNN
F 1 "GND" H 1400 1675 50  0001 C CNN
F 2 "" H 1400 1800 50  0001 C CNN
F 3 "" H 1400 1800 50  0001 C CNN
	1    1400 1800
	0    1    1    0   
$EndComp
$Comp
L power_HTE:GND #PWR013
U 1 1 5E45FE08
P 2800 1200
F 0 "#PWR013" H 2800 950 50  0001 C CNN
F 1 "GND" H 2800 1075 50  0001 C CNN
F 2 "" H 2800 1200 50  0001 C CNN
F 3 "" H 2800 1200 50  0001 C CNN
	1    2800 1200
	-1   0    0    1   
$EndComp
$Comp
L power_HTE:GND #PWR019
U 1 1 5E471173
P 3800 1700
F 0 "#PWR019" H 3800 1450 50  0001 C CNN
F 1 "GND" H 3800 1575 50  0001 C CNN
F 2 "" H 3800 1700 50  0001 C CNN
F 3 "" H 3800 1700 50  0001 C CNN
	1    3800 1700
	0    -1   -1   0   
$EndComp
$Comp
L power_HTE:GND #PWR022
U 1 1 5E471945
P 4300 1500
F 0 "#PWR022" H 4300 1250 50  0001 C CNN
F 1 "GND" H 4300 1375 50  0001 C CNN
F 2 "" H 4300 1500 50  0001 C CNN
F 3 "" H 4300 1500 50  0001 C CNN
	1    4300 1500
	-1   0    0    1   
$EndComp
$Comp
L power_HTE:GND #PWR023
U 1 1 5E482E64
P 4600 1500
F 0 "#PWR023" H 4600 1250 50  0001 C CNN
F 1 "GND" H 4600 1375 50  0001 C CNN
F 2 "" H 4600 1500 50  0001 C CNN
F 3 "" H 4600 1500 50  0001 C CNN
	1    4600 1500
	-1   0    0    1   
$EndComp
$Comp
L power_HTE:GND #PWR015
U 1 1 5E483482
P 3150 1500
F 0 "#PWR015" H 3150 1250 50  0001 C CNN
F 1 "GND" H 3150 1375 50  0001 C CNN
F 2 "" H 3150 1500 50  0001 C CNN
F 3 "" H 3150 1500 50  0001 C CNN
	1    3150 1500
	1    0    0    -1  
$EndComp
$Comp
L power_HTE:GND #PWR016
U 1 1 5E494756
P 3350 1500
F 0 "#PWR016" H 3350 1250 50  0001 C CNN
F 1 "GND" H 3350 1375 50  0001 C CNN
F 2 "" H 3350 1500 50  0001 C CNN
F 3 "" H 3350 1500 50  0001 C CNN
	1    3350 1500
	1    0    0    -1  
$EndComp
$Comp
L power_HTE:GND #PWR017
U 1 1 5E494B4B
P 3550 1500
F 0 "#PWR017" H 3550 1250 50  0001 C CNN
F 1 "GND" H 3550 1375 50  0001 C CNN
F 2 "" H 3550 1500 50  0001 C CNN
F 3 "" H 3550 1500 50  0001 C CNN
	1    3550 1500
	1    0    0    -1  
$EndComp
$Comp
L power_HTE:GND #PWR018
U 1 1 5E494F6C
P 3750 1500
F 0 "#PWR018" H 3750 1250 50  0001 C CNN
F 1 "GND" H 3750 1375 50  0001 C CNN
F 2 "" H 3750 1500 50  0001 C CNN
F 3 "" H 3750 1500 50  0001 C CNN
	1    3750 1500
	1    0    0    -1  
$EndComp
$Comp
L power_HTE:GND #PWR020
U 1 1 5E4953A9
P 3950 1500
F 0 "#PWR020" H 3950 1250 50  0001 C CNN
F 1 "GND" H 3950 1375 50  0001 C CNN
F 2 "" H 3950 1500 50  0001 C CNN
F 3 "" H 3950 1500 50  0001 C CNN
	1    3950 1500
	1    0    0    -1  
$EndComp
$Comp
L power_HTE:GND #PWR024
U 1 1 5E4989FF
P 5200 2650
F 0 "#PWR024" H 5200 2400 50  0001 C CNN
F 1 "GND" H 5200 2525 50  0001 C CNN
F 2 "" H 5200 2650 50  0001 C CNN
F 3 "" H 5200 2650 50  0001 C CNN
	1    5200 2650
	1    0    0    -1  
$EndComp
$Comp
L power_HTE:GND #PWR025
U 1 1 5E49901B
P 5400 2650
F 0 "#PWR025" H 5400 2400 50  0001 C CNN
F 1 "GND" H 5400 2525 50  0001 C CNN
F 2 "" H 5400 2650 50  0001 C CNN
F 3 "" H 5400 2650 50  0001 C CNN
	1    5400 2650
	1    0    0    -1  
$EndComp
$Comp
L Connector_HTE:SAMTEC_FTSH-105-01-F-DV-K_SWD-VCOM-JTAG J1
U 1 1 5E4A7851
P 10000 1350
F 0 "J1" H 10007 1875 50  0000 C CNN
F 1 "SAMTEC_FTSH-105-01-F-DV-K_SWD-VCOM-JTAG" H 10050 1900 50  0001 C TNN
F 2 "Connector_PinHeader_1.27mm:PinHeader_2x05_P1.27mm_Vertical_SMD" H 10050 2000 50  0001 C CNN
F 3 "/hte/library/DS_SPICE/connectors/PLD/ftsh-1xx-xx-xxx-dv-xxx-xxx-mkt.pdf" H 10050 2000 50  0001 C CNN
F 4 "https://www.digikey.com/product-detail/en/samtec-inc/FTSH-105-01-F-DV-K/SAM8796-ND/2649974" H 10000 1350 50  0001 C CNN "DK_Detail_Page"
F 5 "SAM8796-ND" H 10000 1350 50  0001 C CNN "Digi-Key_PN"
F 6 "FTSH-105-01-F-DV-K" H 10000 1350 50  0001 C CNN "MPN"
F 7 "Samtec Inc." H 10000 1350 50  0001 C CNN "Manufacturer"
	1    10000 1350
	1    0    0    -1  
$EndComp
Wire Wire Line
	4500 2900 4300 2900
$Comp
L Device:R R4
U 1 1 5DEE4829
P 5150 3600
F 0 "R4" V 5050 3550 50  0000 L CNN
F 1 "82R" V 5250 3550 50  0000 L CNN
F 2 "Resistor_SMD:R_0402_1005Metric" V 5080 3600 50  0001 C CNN
F 3 "~" H 5150 3600 50  0001 C CNN
F 4 "generic" V 5150 3600 50  0001 C CNN "Manufacturer"
F 5 "R0402_82R_1%" V 5150 3600 50  0001 C CNN "MPN"
	1    5150 3600
	0    1    1    0   
$EndComp
$Comp
L power_HTE:GND #PWR032
U 1 1 5E5593C4
P 8150 5650
F 0 "#PWR032" H 8150 5400 50  0001 C CNN
F 1 "GND" H 8150 5525 50  0001 C CNN
F 2 "" H 8150 5650 50  0001 C CNN
F 3 "" H 8150 5650 50  0001 C CNN
	1    8150 5650
	1    0    0    -1  
$EndComp
$Comp
L DisplayLED_HTE:SML-LX0603SRW-TR D1
U 1 1 5E5C37E1
P 5500 3600
F 0 "D1" H 5500 3500 50  0000 C CNN
F 1 "SML-LX0603SRW-TR" H 5300 3700 50  0000 C CNN
F 2 "LED_SMD:LED_0603_1608Metric" H 5500 3600 50  0001 C CNN
F 3 "/hte/library/DS_SPICE/LED/0603/red/SML-LX0603SRW-TR.pdf" H 5500 3600 50  0001 C CNN
F 4 "Lumex" H 5500 3600 50  0001 C CNN "Manufacturer"
F 5 "SML-LX0603SRW-TR" H 5500 3600 50  0001 C CNN "MPN"
F 6 "https://www.digikey.com/product-detail/en/lumex-opto-components-inc/SML-LX0603SRW-TR/67-1551-1-ND/304364" H 5500 3600 50  0001 C CNN "DK_Detail_Page"
F 7 "67-1551-1-ND" H 5500 3600 50  0001 C CNN "Digi-Key_PN"
	1    5500 3600
	-1   0    0    1   
$EndComp
$Comp
L power_HTE:GND #PWR028
U 1 1 5E5C49AF
P 5700 3600
F 0 "#PWR028" H 5700 3350 50  0001 C CNN
F 1 "GND" H 5700 3475 50  0001 C CNN
F 2 "" H 5700 3600 50  0001 C CNN
F 3 "" H 5700 3600 50  0001 C CNN
	1    5700 3600
	0    -1   -1   0   
$EndComp
Wire Wire Line
	5300 3600 5350 3600
Wire Wire Line
	5650 3600 5700 3600
$Comp
L power_HTE:2V5 #PWR021
U 1 1 5E791B10
P 4150 1150
F 0 "#PWR021" H 4150 1000 50  0001 C CNN
F 1 "2V5" V 4165 1278 50  0000 L CNN
F 2 "" H 4050 900 50  0001 C CNN
F 3 "" H 4150 1000 50  0001 C CNN
	1    4150 1150
	0    1    1    0   
$EndComp
$Comp
L power_HTE:2V5 #PWR035
U 1 1 5E7933EC
P 10450 1000
F 0 "#PWR035" H 10450 850 50  0001 C CNN
F 1 "2V5" H 10465 1173 50  0000 C CNN
F 2 "" H 10350 750 50  0001 C CNN
F 3 "" H 10450 850 50  0001 C CNN
	1    10450 1000
	1    0    0    -1  
$EndComp
Text Label 10700 1200 2    50   ~ 0
~DBGEN
Text Label 4550 3000 2    50   ~ 0
~DBGEN
Text Label 4550 2500 2    50   ~ 0
GPIO
Text Label 10700 1600 2    50   ~ 0
GPIO
Wire Wire Line
	10400 1200 10700 1200
Wire Wire Line
	10400 1600 10700 1600
Wire Wire Line
	4300 2500 4550 2500
$Comp
L Device:C C16
U 1 1 5B8653D1
P 9800 5400
F 0 "C16" H 9850 5600 50  0000 L CNN
F 1 "10u" H 9850 5500 50  0000 L CNN
F 2 "Capacitor_SMD:C_0402_1005Metric" H 9838 5250 50  0001 C CNN
F 3 "~" H 9800 5400 50  0001 C CNN
F 4 "generic" H 9800 5400 50  0001 C CNN "Manufacturer"
F 5 "CC0402_10u_20%_10V_X5R" H 9800 5400 50  0001 C CNN "MPN"
	1    9800 5400
	1    0    0    -1  
$EndComp
$Comp
L power:GNDD #PWR0124
U 1 1 5BB895CC
P 9800 5700
F 0 "#PWR0124" H 9800 5450 50  0001 C CNN
F 1 "GNDD" H 9804 5545 50  0001 C CNN
F 2 "" H 9800 5700 50  0001 C CNN
F 3 "" H 9800 5700 50  0001 C CNN
	1    9800 5700
	1    0    0    -1  
$EndComp
$Comp
L power_HTE:2V5 #PWR034
U 1 1 5E79915B
P 10600 5000
F 0 "#PWR034" H 10600 4850 50  0001 C CNN
F 1 "2V5" V 10600 5200 50  0000 C CNN
F 2 "" H 10500 4750 50  0001 C CNN
F 3 "" H 10600 4850 50  0001 C CNN
	1    10600 5000
	0    1    1    0   
$EndComp
Wire Wire Line
	9800 5550 9800 5700
$Comp
L IC_PowerMgmt_HTE:TLV117125DCY U3
U 1 1 5E79514D
P 10250 5000
F 0 "U3" H 10250 5242 50  0000 C CNN
F 1 "TLV117125DCY" H 10250 5151 50  0000 C CNN
F 2 "Package_TO_SOT_SMD:SOT-223" H 10250 5000 50  0001 C CNN
F 3 "/hte/library/DS_SPICE/ic/power_management/VoltageRegulators/Linear/LDO/tlv1171.pdf" H 10250 5000 50  0001 C CNN
F 4 "https://www.digikey.com/en/products/detail/texas-instruments/TLV117125DCYR/3727216" H 10250 5000 50  0001 C CNN "DK_Detail_Page"
F 5 "296-TLV117125DCYRTR-ND" H 10250 5000 50  0001 C CNN "Digi-Key_PN"
F 6 "TLV117125DCYR" H 10250 5000 50  0001 C CNN "MPN"
F 7 "TI" H 10250 5000 50  0001 C CNN "Manufacturer"
	1    10250 5000
	1    0    0    -1  
$EndComp
$Comp
L power:GNDD #PWR033
U 1 1 5E79A733
P 10250 5350
F 0 "#PWR033" H 10250 5100 50  0001 C CNN
F 1 "GNDD" H 10254 5195 50  0001 C CNN
F 2 "" H 10250 5350 50  0001 C CNN
F 3 "" H 10250 5350 50  0001 C CNN
	1    10250 5350
	1    0    0    -1  
$EndComp
Wire Wire Line
	4300 3600 5000 3600
$Comp
L Device:R R3
U 1 1 5BD217D3
P 8600 5900
F 0 "R3" V 8500 5850 50  0000 L CNN
F 1 "K12" V 8700 5900 50  0000 C CNN
F 2 "Resistor_SMD:R_0402_1005Metric" V 8530 5900 50  0001 C CNN
F 3 "~" H 8600 5900 50  0001 C CNN
F 4 "generic" V 8600 5900 50  0001 C CNN "Manufacturer"
F 5 "R0402_K12_1%" V 8600 5900 50  0001 C CNN "MPN"
	1    8600 5900
	0    1    1    0   
$EndComp
$Comp
L power:GNDD #PWR0149
U 1 1 5BDC00CF
P 8950 6250
F 0 "#PWR0149" H 8950 6000 50  0001 C CNN
F 1 "GNDD" H 8954 6095 50  0001 C CNN
F 2 "" H 8950 6250 50  0001 C CNN
F 3 "" H 8950 6250 50  0001 C CNN
	1    8950 6250
	1    0    0    -1  
$EndComp
$Comp
L Device:R R8
U 1 1 5BE36555
P 9200 5750
F 0 "R8" H 9130 5704 50  0000 R CNN
F 1 "1M0" H 9130 5795 50  0000 R CNN
F 2 "Resistor_SMD:R_0402_1005Metric" V 9130 5750 50  0001 C CNN
F 3 "~" H 9200 5750 50  0001 C CNN
F 4 "generic" H 9200 5750 50  0001 C CNN "Manufacturer"
F 5 "R0402_1M0_1%" H 9200 5750 50  0001 C CNN "MPN"
	1    9200 5750
	-1   0    0    1   
$EndComp
$Comp
L power:GNDD #PWR0151
U 1 1 5BE3673E
P 9200 5950
F 0 "#PWR0151" H 9200 5700 50  0001 C CNN
F 1 "GNDD" H 9204 5795 50  0001 C CNN
F 2 "" H 9200 5950 50  0001 C CNN
F 3 "" H 9200 5950 50  0001 C CNN
	1    9200 5950
	1    0    0    -1  
$EndComp
$Comp
L Device:R R7
U 1 1 5BE85955
P 9350 5200
F 0 "R7" H 9550 5150 50  0000 R CNN
F 1 "1M0" H 9550 5250 50  0000 R CNN
F 2 "Resistor_SMD:R_0402_1005Metric" V 9280 5200 50  0001 C CNN
F 3 "~" H 9350 5200 50  0001 C CNN
F 4 "generic" H 9350 5200 50  0001 C CNN "Manufacturer"
F 5 "R0402_1M0_1%" H 9350 5200 50  0001 C CNN "MPN"
	1    9350 5200
	-1   0    0    1   
$EndComp
Text Label 8750 5900 0    50   ~ 0
BUT
$Comp
L power:GNDD #PWR0152
U 1 1 5C0C970B
P 9550 5850
F 0 "#PWR0152" H 9550 5600 50  0001 C CNN
F 1 "GNDD" H 9554 5695 50  0001 C CNN
F 2 "" H 9550 5850 50  0001 C CNN
F 3 "" H 9550 5850 50  0001 C CNN
	1    9550 5850
	1    0    0    -1  
$EndComp
Text Label 8850 5300 0    50   ~ 0
ON
Wire Wire Line
	9350 5000 9350 5050
Wire Wire Line
	7650 5000 7950 5000
Wire Wire Line
	7950 5150 7950 5000
Wire Wire Line
	7750 5900 7950 5900
Wire Wire Line
	7950 5900 7950 5450
Connection ~ 7750 5900
Wire Wire Line
	8150 5000 8150 5250
Wire Wire Line
	8150 5650 8150 5550
Wire Wire Line
	9250 5600 9200 5600
Wire Wire Line
	9550 5300 9550 5350
Wire Wire Line
	9350 5350 9550 5350
Connection ~ 9550 5350
Wire Wire Line
	9550 5350 9550 5400
Wire Wire Line
	9550 5800 9550 5850
Wire Wire Line
	9200 5900 9200 5950
Wire Wire Line
	9750 5000 9800 5000
Wire Wire Line
	9800 5000 9800 5250
Wire Wire Line
	8950 6200 8950 6250
$Comp
L Switch_HTE:OMRON_B3U-3000P SW1
U 1 1 5E989E5E
P 8450 5200
F 0 "SW1" V 8450 5100 50  0000 R CNN
F 1 "OMRON_B3U-3000P" V 8150 5200 50  0000 R CNN
F 2 "Switch_HTE:OMRON_B3U-3000P" H 8450 5400 50  0001 C CNN
F 3 "/hte/library/DS_SPICE/swiches/B3U_1110.pdf" H 8450 5400 50  0001 C CNN
F 4 "Omron" H 8450 5200 50  0001 C CNN "Manufacturer"
F 5 "B3U-3000P" H 8450 5200 50  0001 C CNN "MPN"
F 6 "SW1022CT-ND" H 8450 5200 50  0001 C CNN "Digi-Key_PN"
F 7 "https://www.digikey.com/products/en?keywords=SW1022CT-ND" H 8450 5200 50  0001 C CNN "DK_Detail_Page"
	1    8450 5200
	0    -1   1    0   
$EndComp
Connection ~ 8150 5000
Connection ~ 7950 5000
Wire Wire Line
	7950 5000 8150 5000
Text Label 4550 3300 2    50   ~ 0
ON
Text Label 4550 2700 2    50   ~ 0
BUT
Wire Wire Line
	4300 2700 4550 2700
Wire Wire Line
	6300 3400 4300 3400
$Comp
L Battery_HTE:Turnigy_Cylindrical90mAh_ob BT1
U 1 1 5E7D726A
P 8150 5400
F 0 "BT1" H 8150 5300 50  0000 L CNN
F 1 "Turnigy_Cylindrical90mAh_ob" H 8150 5750 50  0001 C CNN
F 2 "Battery_HTE:LP503048HA-PCM-LD" H 8150 5650 50  0001 C CNN
F 3 "" H 8150 5650 50  0001 C CNN
F 4 "Turnigy" H 8150 5400 50  0001 C CNN "Manufacturer"
	1    8150 5400
	1    0    0    -1  
$EndComp
$Comp
L Device:C C19
U 1 1 5E8065F8
P 10600 5400
F 0 "C19" H 10650 5600 50  0000 L CNN
F 1 "10u" H 10650 5500 50  0000 L CNN
F 2 "Capacitor_SMD:C_0402_1005Metric" H 10638 5250 50  0001 C CNN
F 3 "~" H 10600 5400 50  0001 C CNN
F 4 "generic" H 10600 5400 50  0001 C CNN "Manufacturer"
F 5 "CC0402_10u_20%_10V_X5R" H 10600 5400 50  0001 C CNN "MPN"
	1    10600 5400
	1    0    0    -1  
$EndComp
$Comp
L power:GNDD #PWR0103
U 1 1 5E81A814
P 10600 5600
F 0 "#PWR0103" H 10600 5350 50  0001 C CNN
F 1 "GNDD" H 10604 5445 50  0001 C CNN
F 2 "" H 10600 5600 50  0001 C CNN
F 3 "" H 10600 5600 50  0001 C CNN
	1    10600 5600
	1    0    0    -1  
$EndComp
Wire Wire Line
	9800 5000 9950 5000
Connection ~ 9800 5000
Wire Wire Line
	10250 5350 10250 5300
Wire Wire Line
	10550 5000 10600 5000
Wire Wire Line
	10600 5000 10600 5250
Connection ~ 10600 5000
Wire Wire Line
	10600 5600 10600 5550
$Comp
L Diode_HTE:BZV55-C2V4 D5
U 1 1 5E7D7DC5
P 8950 6050
F 0 "D5" V 9000 5750 50  0000 L CNN
F 1 "BZV55-C2V4" V 9100 5550 50  0000 L CNN
F 2 "Diode_SMD_HTE:D_MiniMELF" H 8950 6050 50  0001 C CNN
F 3 "/hte/library/DS_SPICE/diodes/zeners/BZV55_NXP.pdf" H 8950 6050 50  0001 C CNN
F 4 "Nexperia" H 8950 6050 50  0001 C CNN "Manufacturer"
F 5 "BZV55-C2V4,115" H 8950 6050 50  0001 C CNN "MPN"
F 6 "1727-4967-1-ND" H 8950 6050 50  0001 C CNN "Digi-Key_PN"
F 7 "https://www.digikey.com/product-detail/en/nexperia-usa-inc/BZV55-C2V4-115/1727-4967-1-ND/2531548" H 8950 6050 50  0001 C CNN "DK_Detail_Page"
	1    8950 6050
	0    1    1    0   
$EndComp
Wire Wire Line
	8850 5300 8950 5300
Wire Wire Line
	8450 5400 8450 5900
Wire Wire Line
	9150 5600 9200 5600
Connection ~ 9200 5600
Wire Wire Line
	8750 5900 8950 5900
$Comp
L Transistor_HTE:AO6604 Q1
U 1 1 5E8531CC
P 9550 5600
F 0 "Q1" H 9350 5750 50  0000 L CNN
F 1 "AO6604" H 9656 5555 50  0001 L CNN
F 2 "Package_TO_SOT_SMD:TSOT-23-6" H 9250 5650 50  0001 C CNN
F 3 "/hte/library/DS_SPICE/transistor/MOSFET/complementary/AO6604/AO6604.pdf" H 9550 5600 50  0001 C CNN
F 4 "Alpha & Omega" H 9550 5600 50  0001 C CNN "Manufacturer"
F 5 "AO6604" H 9550 5600 50  0001 C CNN "MPN"
F 6 "785-1078-2-ND" H 9550 5600 50  0001 C CNN "Digi-Key_PN"
F 7 "https://www.digikey.com/product-detail/en/alpha-omega-semiconductor-inc/AO6604/785-1078-2-ND/1855850" H 9550 5600 50  0001 C CNN "DK_Detail_Page"
	1    9550 5600
	1    0    0    -1  
$EndComp
$Comp
L Transistor_HTE:AO6604 Q1
U 2 1 5E85BAC0
P 9550 5000
F 0 "Q1" V 9793 5000 50  0000 C CNN
F 1 "AO6604" V 9702 5000 50  0000 C CNN
F 2 "Package_TO_SOT_SMD:TSOT-23-6" H 9250 5050 50  0001 C CNN
F 3 "/hte/library/DS_SPICE/transistor/MOSFET/complementary/AO6604/AO6604.pdf" H 9550 5000 50  0001 C CNN
F 4 "Alpha & Omega" H 9550 5000 50  0001 C CNN "Manufacturer"
F 5 "AO6604" H 9550 5000 50  0001 C CNN "MPN"
F 6 "785-1078-2-ND" H 9550 5000 50  0001 C CNN "Digi-Key_PN"
F 7 "https://www.digikey.com/product-detail/en/alpha-omega-semiconductor-inc/AO6604/785-1078-2-ND/1855850" H 9550 5000 50  0001 C CNN "DK_Detail_Page"
	2    9550 5000
	0    1    -1   0   
$EndComp
Connection ~ 9350 5000
$Comp
L Diode_HTE:BAT54C D6
U 1 1 5E7DA4C6
P 8950 5600
F 0 "D6" V 9100 5750 50  0000 L CNN
F 1 "BAT54C" V 9000 5700 50  0000 L CNN
F 2 "Package_TO_SOT_HTE:SOT-23" H 9025 5725 50  0001 L CNN
F 3 "/hte/library/DS_SPICE/diodes/schottky/dual/BAT54(A_C_S).pdf" H 8870 5600 50  0001 C CNN
F 4 "ON Semiconductor" H 8950 5600 50  0001 C CNN "Manufacturer"
F 5 "BAT54C" H 8950 5600 50  0001 C CNN "MPN"
F 6 "BAT54CFSCT-ND" H 8950 5600 50  0001 C CNN "Digi-Key_PN"
F 7 "https://www.digikey.com/product-detail/en/on-semiconductor/BAT54C/BAT54CFSCT-ND/458929" H 8950 5600 50  0001 C CNN "DK_Detail_Page"
	1    8950 5600
	0    -1   1    0   
$EndComp
Connection ~ 8950 5900
$Comp
L IC_PowerMgmt_HTE:LTC4065LEDC U1
U 1 1 5E7E5CAB
P 7150 5200
F 0 "U1" H 6800 5550 50  0000 C CNN
F 1 "LTC4065LEDC" H 7300 5550 50  0000 C CNN
F 2 "Package_DFN_QFN_HTE:LTC4065LEDC" H 7150 5700 50  0001 C CNN
F 3 "/hte/library/DS_SPICE/ic/power_management/BatteryIC/LTC4065L.pdf" H 7150 5700 50  0001 C CNN
F 4 "Linear Technology" H 7150 5200 50  0001 C CNN "Manufacturer"
F 5 "LTC4065LEDC" H 7150 5200 50  0001 C CNN "MPN"
F 6 "LTC4065LEDC#TRMPBFTR-ND" H 7150 5200 50  0001 C CNN "Digi-Key_PN"
F 7 "https://www.digikey.com/product-detail/en/linear-technology-analog-devices/LTC4065LEDC-TRMPBF/LTC4065LEDC-TRMPBFTR-ND/1620482" H 7150 5200 50  0001 C CNN "DK_Detail_Page"
	1    7150 5200
	1    0    0    -1  
$EndComp
Wire Wire Line
	4550 3000 4300 3000
Wire Wire Line
	4550 3300 4300 3300
Text Notes 7350 6000 0    50   ~ 0
93mA charging current
Wire Wire Line
	6300 4000 4300 4000
NoConn ~ 1700 6300
Text Label 4525 5500 2    50   ~ 0
LED2
Text Label 4525 4900 2    50   ~ 0
BUT2
Wire Wire Line
	4300 4900 4525 4900
Wire Wire Line
	4300 5500 4525 5500
Text Label 5500 3400 0    50   ~ 0
RX_PIN
Text Label 5525 4000 0    50   ~ 0
TX_PIN
$Comp
L power_HTE:GND #PWR0101
U 1 1 5FC9DBB7
P 6250 3500
F 0 "#PWR0101" H 6250 3250 50  0001 C CNN
F 1 "GND" H 6250 3375 50  0001 C CNN
F 2 "" H 6250 3500 50  0001 C CNN
F 3 "" H 6250 3500 50  0001 C CNN
	1    6250 3500
	0    1    1    0   
$EndComp
$Comp
L power_HTE:2V5 #PWR0102
U 1 1 5FC9DBBD
P 6150 3250
F 0 "#PWR0102" H 6150 3100 50  0001 C CNN
F 1 "2V5" V 6150 3450 50  0000 C CNN
F 2 "" H 6050 3000 50  0001 C CNN
F 3 "" H 6150 3100 50  0001 C CNN
	1    6150 3250
	1    0    0    -1  
$EndComp
Wire Wire Line
	6250 3500 6300 3500
$Comp
L Connector_HTE:T1M-03-GF-S-RA-TR J3
U 1 1 5FC9DBC5
P 6700 3400
F 0 "J3" H 6930 3446 50  0000 L CNN
F 1 "T1M-03-GF-S-RA-TR" H 6930 3355 50  0000 L CNN
F 2 "SAMTEC_T1M-03-GF-S-RA-TR" H 6700 3400 50  0001 L BNN
F 3 "/hte/library/DS_SPICE/connectors/t1m-xx-xx-s-ra-tr-mkt.pdf" H 6700 3400 50  0001 L BNN
F 4 "SAMTEC" H 6700 3400 50  0001 L BNN "Manufacturer"
F 5 "T1M-03-GF-S-RA-TR" H 6700 3400 50  0001 C CNN "MPN"
F 6 "SAM14651TR-ND" H 6700 3400 50  0001 C CNN "Digi-Key_PN"
F 7 "https://www.digikey.com/en/products/detail/samtec-inc/T1M-03-GF-S-RA-TR/6613846" H 6700 3400 50  0001 C CNN "DK_Detail_Page"
	1    6700 3400
	1    0    0    1   
$EndComp
Wire Wire Line
	6300 3300 6150 3300
Wire Wire Line
	6150 3300 6150 3250
$Comp
L power_HTE:GND #PWR0104
U 1 1 5FCA4811
P 6250 4100
F 0 "#PWR0104" H 6250 3850 50  0001 C CNN
F 1 "GND" H 6250 3975 50  0001 C CNN
F 2 "" H 6250 4100 50  0001 C CNN
F 3 "" H 6250 4100 50  0001 C CNN
	1    6250 4100
	0    1    1    0   
$EndComp
$Comp
L power_HTE:2V5 #PWR0105
U 1 1 5FCA4817
P 6150 3850
F 0 "#PWR0105" H 6150 3700 50  0001 C CNN
F 1 "2V5" V 6150 4050 50  0000 C CNN
F 2 "" H 6050 3600 50  0001 C CNN
F 3 "" H 6150 3700 50  0001 C CNN
	1    6150 3850
	1    0    0    -1  
$EndComp
Wire Wire Line
	6250 4100 6300 4100
$Comp
L Connector_HTE:T1M-03-GF-S-RA-TR J4
U 1 1 5FCA481F
P 6700 4000
F 0 "J4" H 6930 4046 50  0000 L CNN
F 1 "T1M-03-GF-S-RA-TR" H 6930 3955 50  0000 L CNN
F 2 "SAMTEC_T1M-03-GF-S-RA-TR" H 6700 4000 50  0001 L BNN
F 3 "/hte/library/DS_SPICE/connectors/t1m-xx-xx-s-ra-tr-mkt.pdf" H 6700 4000 50  0001 L BNN
F 4 "SAMTEC" H 6700 4000 50  0001 L BNN "Manufacturer"
F 5 "T1M-03-GF-S-RA-TR" H 6700 4000 50  0001 C CNN "MPN"
F 6 "SAM14651TR-ND" H 6700 4000 50  0001 C CNN "Digi-Key_PN"
F 7 "https://www.digikey.com/en/products/detail/samtec-inc/T1M-03-GF-S-RA-TR/6613846" H 6700 4000 50  0001 C CNN "DK_Detail_Page"
	1    6700 4000
	1    0    0    1   
$EndComp
Wire Wire Line
	6300 3900 6150 3900
Wire Wire Line
	6150 3900 6150 3850
Text Notes 5650 4600 0    50   ~ 0
high
$Comp
L Device:R R9
U 1 1 5FCD02A8
P 6000 4400
F 0 "R9" V 5900 4350 50  0000 L CNN
F 1 "82R" V 6100 4350 50  0000 L CNN
F 2 "Resistor_SMD:R_0402_1005Metric" V 5930 4400 50  0001 C CNN
F 3 "~" H 6000 4400 50  0001 C CNN
F 4 "generic" V 6000 4400 50  0001 C CNN "Manufacturer"
F 5 "R0402_82R_1%" V 6000 4400 50  0001 C CNN "MPN"
	1    6000 4400
	0    1    1    0   
$EndComp
$Comp
L DisplayLED_HTE:LG_L29K-G2J1-24 D3
U 1 1 5FCD02AE
P 6350 4400
F 0 "D3" H 6350 4300 50  0000 C CNN
F 1 "LG_L29K-G2J1-24" H 6150 4500 50  0000 C CNN
F 2 "DisplayLED_HTE:LTST-S270KxKT" H 6350 4400 50  0001 C CNN
F 3 "/hte/library/DS_SPICE/LED/0603/green/LG_L29K.pdf" H 6350 4400 50  0001 C CNN
F 4 "OSRAM" H 6350 4400 50  0001 C CNN "Manufacturer"
F 5 "LG L29K-G2J1-24" H 6350 4400 50  0001 C CNN "MPN"
F 6 "https://www.digikey.com/product-detail/en/osram-opto-semiconductors-inc/LG-L29K-G2J1-24-Z/475-2709-1-ND/1938876" H 6350 4400 50  0001 C CNN "DK_Detail_Page"
F 7 "475-2709-1-ND" H 6350 4400 50  0001 C CNN "Digi-Key_PN"
	1    6350 4400
	-1   0    0    1   
$EndComp
$Comp
L power_HTE:GND #PWR0106
U 1 1 5FCD02B4
P 6550 4400
F 0 "#PWR0106" H 6550 4150 50  0001 C CNN
F 1 "GND" H 6550 4275 50  0001 C CNN
F 2 "" H 6550 4400 50  0001 C CNN
F 3 "" H 6550 4400 50  0001 C CNN
	1    6550 4400
	0    -1   -1   0   
$EndComp
Wire Wire Line
	6150 4400 6200 4400
Wire Wire Line
	6500 4400 6550 4400
Wire Wire Line
	5150 4400 5850 4400
$Comp
L Switch_HTE:OMRON_B3U-3000P SW2
U 1 1 5FCDA76B
P 6100 6200
F 0 "SW2" H 6150 6400 50  0000 R CNN
F 1 "OMRON_B3U-3000P" H 6500 6100 50  0000 R CNN
F 2 "Switch_HTE:OMRON_B3U-3000P" H 6100 6400 50  0001 C CNN
F 3 "/hte/library/DS_SPICE/swiches/B3U_1110.pdf" H 6100 6400 50  0001 C CNN
F 4 "Omron" H 6100 6200 50  0001 C CNN "Manufacturer"
F 5 "B3U-3000P" H 6100 6200 50  0001 C CNN "MPN"
F 6 "SW1022CT-ND" H 6100 6200 50  0001 C CNN "Digi-Key_PN"
F 7 "https://www.digikey.com/products/en?keywords=SW1022CT-ND" H 6100 6200 50  0001 C CNN "DK_Detail_Page"
	1    6100 6200
	1    0    0    -1  
$EndComp
$Comp
L power:GNDD #PWR0107
U 1 1 5FCF5766
P 6550 6250
F 0 "#PWR0107" H 6550 6000 50  0001 C CNN
F 1 "GNDD" H 6554 6095 50  0001 C CNN
F 2 "" H 6550 6250 50  0001 C CNN
F 3 "" H 6550 6250 50  0001 C CNN
	1    6550 6250
	1    0    0    -1  
$EndComp
Wire Wire Line
	6550 6250 6550 6200
Wire Wire Line
	6550 6200 6300 6200
Wire Wire Line
	5900 6200 5650 6200
Text Label 5875 6200 2    50   ~ 0
BUT2
Text Label 5150 4400 0    50   ~ 0
LED2
Wire Wire Line
	8150 5000 8450 5000
Connection ~ 8450 5000
Wire Wire Line
	8450 5000 9350 5000
$Comp
L Device:C C23
U 1 1 5DFB08EF
P 7950 5300
F 0 "C23" H 7800 5400 50  0000 L CNN
F 1 "4u7" H 7800 5200 50  0000 L CNN
F 2 "Capacitor_SMD:C_0402_1005Metric" H 7988 5150 50  0001 C CNN
F 3 "~" H 7950 5300 50  0001 C CNN
F 4 "generic" H 7950 5300 50  0001 C CNN "Manufacturer"
F 5 "CC0402_4u7_10%_10V_X5R" H 7950 5300 50  0001 C CNN "MPN"
	1    7950 5300
	1    0    0    -1  
$EndComp
Wire Wire Line
	4350 2000 4300 2000
Wire Wire Line
	4600 1850 4600 2000
Wire Wire Line
	4550 2000 4600 2000
Connection ~ 4600 2000
Wire Wire Line
	4600 2000 4600 2200
Wire Wire Line
	1450 4450 1450 4400
Connection ~ 1450 4400
Wire Wire Line
	1450 4750 1450 4800
Connection ~ 1450 4800
Wire Wire Line
	1650 4600 1700 4600
Wire Wire Line
	1250 4600 1200 4600
Text Notes 5750 4850 0    50   ~ 0
5mA for 2.85V white led
Wire Wire Line
	5750 5000 5750 5200
Wire Wire Line
	5750 5000 6650 5000
Wire Wire Line
	5950 5200 5750 5200
Connection ~ 5750 5200
Wire Wire Line
	5750 5200 5750 5500
Wire Wire Line
	5750 5900 5750 5800
Wire Wire Line
	5750 5900 6600 5900
$Comp
L Device:C C1
U 1 1 5DB0080F
P 1300 4400
F 0 "C1" V 1200 4200 50  0000 L CNN
F 1 "12p" V 1200 4450 50  0000 L CNN
F 2 "Capacitor_SMD:C_0402_1005Metric" H 1338 4250 50  0001 C CNN
F 3 "~" H 1300 4400 50  0001 C CNN
F 4 "generic" V 1300 4400 50  0001 C CNN "Manufacturer"
F 5 "CC0402_12p_5%_50V_NP0" V 1300 4400 50  0001 C CNN "MPN"
	1    1300 4400
	0    1    1    0   
$EndComp
$Comp
L Connector:USB_B_Micro J2
U 1 1 5DFB096E
P 5250 7100
F 0 "J2" H 5305 7567 50  0000 C CNN
F 1 "USB_B_Micro" H 5305 7476 50  0000 C CNN
F 2 "Connector_USB:USB_Micro-B_Molex_47346-0001" H 5400 7050 50  0001 C CNN
F 3 "~" H 5400 7050 50  0001 C CNN
F 4 "10118192-0001LF" H 5250 7100 50  0001 C CNN "MPN"
	1    5250 7100
	-1   0    0    1   
$EndComp
$EndSCHEMATC
